<?xml version="1.0" encoding="UTF-8" standalone="no"?>
<!-- Created with Inkscape (http://www.inkscape.org/) -->

<svg
   xmlns:dc="http://purl.org/dc/elements/1.1/"
   xmlns:cc="http://creativecommons.org/ns#"
   xmlns:rdf="http://www.w3.org/1999/02/22-rdf-syntax-ns#"
   xmlns:svg="http://www.w3.org/2000/svg"
   xmlns="http://www.w3.org/2000/svg"
   xmlns:xlink="http://www.w3.org/1999/xlink"
   xmlns:sodipodi="http://sodipodi.sourceforge.net/DTD/sodipodi-0.dtd"
   xmlns:inkscape="http://www.inkscape.org/namespaces/inkscape"
   width="640"
   height="412"
   id="svg2"
   version="1.1"
   inkscape:version="0.48.0 r9654"
   sodipodi:docname="ciel_kdm_panel_615_401.svg"
   inkscape:export-filename="/home/canci/Desktop/ciel-2.1/kdm/kdm-ciel-widescreen/win-login.png"
   inkscape:export-xdpi="90"
   inkscape:export-ydpi="90">
  <defs
     id="defs4">
    <linearGradient
       inkscape:collect="always"
       id="linearGradient5684">
      <stop
         style="stop-color:#f1f5f6;stop-opacity:1;"
         offset="0"
         id="stop5686" />
      <stop
         style="stop-color:#f1f5f6;stop-opacity:0;"
         offset="1"
         id="stop5688" />
    </linearGradient>
    <linearGradient
       inkscape:collect="always"
       id="linearGradient5674">
      <stop
         style="stop-color:#ffffff;stop-opacity:1;"
         offset="0"
         id="stop5676" />
      <stop
         style="stop-color:#ffffff;stop-opacity:0;"
         offset="1"
         id="stop5678" />
    </linearGradient>
    <linearGradient
       id="linearGradient5575">
      <stop
         style="stop-color:#cdcdcd;stop-opacity:1;"
         offset="0"
         id="stop5577" />
      <stop
         style="stop-color:#b4d5e7;stop-opacity:0;"
         offset="1"
         id="stop5579" />
    </linearGradient>
    <linearGradient
       inkscape:collect="always"
       id="linearGradient3974">
      <stop
         style="stop-color:#ffffff;stop-opacity:1;"
         offset="0"
         id="stop3976" />
      <stop
         style="stop-color:#ffffff;stop-opacity:0;"
         offset="1"
         id="stop3978" />
    </linearGradient>
    <linearGradient
       inkscape:collect="always"
       id="linearGradient3932">
      <stop
         style="stop-color:#cbd2d9;stop-opacity:1;"
         offset="0"
         id="stop3934" />
      <stop
         style="stop-color:#cbd2d9;stop-opacity:0;"
         offset="1"
         id="stop3936" />
    </linearGradient>
    <linearGradient
       inkscape:collect="always"
       xlink:href="#linearGradient3932"
       id="linearGradient3938"
       x1="244"
       y1="791.36218"
       x2="243"
       y2="484.36218"
       gradientUnits="userSpaceOnUse" />
    <linearGradient
       inkscape:collect="always"
       xlink:href="#linearGradient3974"
       id="linearGradient3980"
       x1="204"
       y1="265.36218"
       x2="204"
       y2="542.36218"
       gradientUnits="userSpaceOnUse" />
    <defs
       id="defs829" />
    <inkscape:perspective
       id="perspective21"
       inkscape:persp3d-origin="50 : 40 : 1"
       inkscape:vp_z="100 : 60 : 1"
       inkscape:vp_y="0 : 1000 : 0"
       inkscape:vp_x="0 : 60 : 1"
       sodipodi:type="inkscape:persp3d" />
    <filter
       inkscape:collect="always"
       id="filter5624"
       color-interpolation-filters="sRGB">
      <feGaussianBlur
         inkscape:collect="always"
         stdDeviation="3.850211"
         id="feGaussianBlur5626" />
    </filter>
    <linearGradient
       inkscape:collect="always"
       xlink:href="#linearGradient5674"
       id="linearGradient5680"
       x1="267.3992"
       y1="804.31726"
       x2="29.356422"
       y2="431.43607"
       gradientUnits="userSpaceOnUse" />
    <linearGradient
       inkscape:collect="always"
       xlink:href="#linearGradient5684"
       id="linearGradient3058"
       gradientUnits="userSpaceOnUse"
       x1="683.33331"
       y1="815.6955"
       x2="130"
       y2="425.69553" />
    <linearGradient
       inkscape:collect="always"
       xlink:href="#linearGradient5575"
       id="linearGradient3060"
       gradientUnits="userSpaceOnUse"
       gradientTransform="translate(544,53)"
       x1="274"
       y1="611.36218"
       x2="274"
       y2="512.36218" />
    <linearGradient
       inkscape:collect="always"
       xlink:href="#linearGradient5575"
       id="linearGradient3117"
       gradientUnits="userSpaceOnUse"
       gradientTransform="matrix(1.5106841,0,0,1.5106841,263.30649,-141.93195)"
       x1="274"
       y1="611.36218"
       x2="274"
       y2="512.36218" />
    <linearGradient
       inkscape:collect="always"
       xlink:href="#linearGradient5575"
       id="linearGradient3126"
       gradientUnits="userSpaceOnUse"
       gradientTransform="matrix(1.5106841,0,0,1.5106841,263.30649,-141.93195)"
       x1="274"
       y1="611.36218"
       x2="274"
       y2="512.36218" />
    <linearGradient
       inkscape:collect="always"
       xlink:href="#linearGradient5575"
       id="linearGradient3134"
       gradientUnits="userSpaceOnUse"
       gradientTransform="matrix(1.5106841,0,0,1.5106841,263.30649,-141.93195)"
       x1="274"
       y1="611.36218"
       x2="274"
       y2="512.36218" />
    <linearGradient
       inkscape:collect="always"
       xlink:href="#linearGradient5575"
       id="linearGradient3193"
       gradientUnits="userSpaceOnUse"
       gradientTransform="matrix(1.5106841,0,0,1.5106841,269.34111,-145.98342)"
       x1="274"
       y1="611.36218"
       x2="274"
       y2="512.36218" />
  </defs>
  <sodipodi:namedview
     id="base"
     pagecolor="#ffffff"
     bordercolor="#666666"
     borderopacity="1.0"
     inkscape:pageopacity="0.0"
     inkscape:pageshadow="2"
     inkscape:zoom="1.0729879"
     inkscape:cx="335.09685"
     inkscape:cy="183.67995"
     inkscape:document-units="px"
     inkscape:current-layer="g3121"
     showgrid="false"
     inkscape:window-width="1366"
     inkscape:window-height="716"
     inkscape:window-x="-2"
     inkscape:window-y="-3"
     inkscape:window-maximized="1" />
  <metadata
     id="metadata7">
    <rdf:RDF>
      <cc:Work
         rdf:about="">
        <dc:format>image/svg+xml</dc:format>
        <dc:type
           rdf:resource="http://purl.org/dc/dcmitype/StillImage" />
        <dc:title />
      </cc:Work>
    </rdf:RDF>
  </metadata>
  <g
     inkscape:label="Layer 1"
     inkscape:groupmode="layer"
     id="layer1"
     transform="translate(0,-640.36218)">
    <g
       id="g3128"
       transform="matrix(1.525713,0,0,1.4089067,-805.10774,-62.755563)"
       style="opacity:0.45192339">
      <g
         transform="matrix(1.3146322,0,0,1.0182215,-163.53304,-14.49709)"
         id="g3121">
        <rect
           rx="8"
           ry="11"
           y="492.36218"
           x="723"
           height="172"
           width="193"
           id="rect5622"
           style="fill:#646464;fill-opacity:0.87804877;fill-rule:nonzero;stroke:none;filter:url(#filter5624)"
           transform="matrix(1.5106841,0,0,1.5106841,-552.47104,-226.04968)" />
        <rect
           style="fill:#ffffff;fill-opacity:0.87804877;fill-rule:nonzero;stroke:none"
           id="rect5555"
           width="291.56204"
           height="259.83768"
           x="539.75354"
           y="517.75391"
           ry="16.617525"
           rx="12.085473" />
        <rect
           rx="4.6510429"
           ry="8.1721029"
           y="517.75391"
           x="539.75354"
           height="259.83768"
           width="291.56204"
           id="rect5557"
           style="fill:url(#linearGradient3193);fill-opacity:1;fill-rule:nonzero;stroke:none" />
      </g>
    </g>
  </g>
</svg>
