<?xml version="1.0" encoding="UTF-8" standalone="no"?>
<!-- Created with Inkscape (http://www.inkscape.org/) -->

<svg
   xmlns:dc="http://purl.org/dc/elements/1.1/"
   xmlns:cc="http://creativecommons.org/ns#"
   xmlns:rdf="http://www.w3.org/1999/02/22-rdf-syntax-ns#"
   xmlns:svg="http://www.w3.org/2000/svg"
   xmlns="http://www.w3.org/2000/svg"
   xmlns:xlink="http://www.w3.org/1999/xlink"
   xmlns:sodipodi="http://sodipodi.sourceforge.net/DTD/sodipodi-0.dtd"
   xmlns:inkscape="http://www.inkscape.org/namespaces/inkscape"
   width="1024"
   height="768"
   id="svg2"
   version="1.1"
   inkscape:version="0.48.0 r9654"
   sodipodi:docname="ciel_wallpaper_1024x768x24.svg"
   inkscape:export-filename="/home/canci/Desktop/ciel-2.1/wallpaper/ciel_wallpaper_1024x768x24.png"
   inkscape:export-xdpi="90"
   inkscape:export-ydpi="90">
  <defs
     id="defs4">
    <linearGradient
       inkscape:collect="always"
       id="linearGradient7692">
      <stop
         style="stop-color:#000000;stop-opacity:1;"
         offset="0"
         id="stop7694" />
      <stop
         style="stop-color:#000000;stop-opacity:0;"
         offset="1"
         id="stop7696" />
    </linearGradient>
    <linearGradient
       id="linearGradient4466">
      <stop
         style="stop-color:#dde4e7;stop-opacity:1;"
         offset="0"
         id="stop4468" />
      <stop
         style="stop-color:#95b9f1;stop-opacity:0;"
         offset="1"
         id="stop4470" />
    </linearGradient>
    <linearGradient
       id="linearGradient4319">
      <stop
         style="stop-color:#dde4e7;stop-opacity:1;"
         offset="0"
         id="stop4321" />
      <stop
         style="stop-color:#5d93ea;stop-opacity:0;"
         offset="1"
         id="stop4323" />
    </linearGradient>
    <linearGradient
       inkscape:collect="always"
       id="linearGradient4157">
      <stop
         style="stop-color:#ffffff;stop-opacity:1;"
         offset="0"
         id="stop4159" />
      <stop
         style="stop-color:#ffffff;stop-opacity:0;"
         offset="1"
         id="stop4161" />
    </linearGradient>
    <linearGradient
       inkscape:collect="always"
       id="linearGradient5674">
      <stop
         style="stop-color:#ffffff;stop-opacity:1;"
         offset="0"
         id="stop5676" />
      <stop
         style="stop-color:#ffffff;stop-opacity:0;"
         offset="1"
         id="stop5678" />
    </linearGradient>
    <linearGradient
       id="linearGradient5575">
      <stop
         style="stop-color:#cdcdcd;stop-opacity:1;"
         offset="0"
         id="stop5577" />
      <stop
         style="stop-color:#b4d5e7;stop-opacity:0;"
         offset="1"
         id="stop5579" />
    </linearGradient>
    <linearGradient
       inkscape:collect="always"
       id="linearGradient3974">
      <stop
         style="stop-color:#ffffff;stop-opacity:1;"
         offset="0"
         id="stop3976" />
      <stop
         style="stop-color:#ffffff;stop-opacity:0;"
         offset="1"
         id="stop3978" />
    </linearGradient>
    <linearGradient
       inkscape:collect="always"
       id="linearGradient3932">
      <stop
         style="stop-color:#cbd2d9;stop-opacity:1;"
         offset="0"
         id="stop3934" />
      <stop
         style="stop-color:#cbd2d9;stop-opacity:0;"
         offset="1"
         id="stop3936" />
    </linearGradient>
    <linearGradient
       inkscape:collect="always"
       xlink:href="#linearGradient3932"
       id="linearGradient3938"
       x1="244"
       y1="791.36218"
       x2="243"
       y2="484.36218"
       gradientUnits="userSpaceOnUse" />
    <linearGradient
       inkscape:collect="always"
       xlink:href="#linearGradient3974"
       id="linearGradient3980"
       x1="204"
       y1="265.36218"
       x2="204"
       y2="542.36218"
       gradientUnits="userSpaceOnUse" />
    <defs
       id="defs829" />
    <inkscape:perspective
       id="perspective21"
       inkscape:persp3d-origin="50 : 40 : 1"
       inkscape:vp_z="100 : 60 : 1"
       inkscape:vp_y="0 : 1000 : 0"
       inkscape:vp_x="0 : 60 : 1"
       sodipodi:type="inkscape:persp3d" />
    <linearGradient
       inkscape:collect="always"
       xlink:href="#linearGradient5674"
       id="linearGradient5680"
       x1="267.3992"
       y1="804.31726"
       x2="29.356422"
       y2="431.43607"
       gradientUnits="userSpaceOnUse" />
    <linearGradient
       inkscape:collect="always"
       xlink:href="#linearGradient4157"
       id="linearGradient4163"
       x1="682"
       y1="410.36218"
       x2="682"
       y2="726.36218"
       gradientUnits="userSpaceOnUse"
       gradientTransform="translate(-32.090904,-29.818183)" />
    <linearGradient
       inkscape:collect="always"
       xlink:href="#linearGradient4319"
       id="linearGradient4325"
       x1="20.454546"
       y1="288.72583"
       x2="697.72729"
       y2="581.90765"
       gradientUnits="userSpaceOnUse"
       gradientTransform="translate(-160,0)" />
    <linearGradient
       inkscape:collect="always"
       xlink:href="#linearGradient4466"
       id="linearGradient4472"
       x1="797.72729"
       y1="340.99854"
       x2="797.72729"
       y2="1009.1804"
       gradientUnits="userSpaceOnUse"
       gradientTransform="translate(-160,0)" />
    <linearGradient
       id="linearGradient5575-2">
      <stop
         style="stop-color:#cdcdcd;stop-opacity:1;"
         offset="0"
         id="stop5577-7" />
      <stop
         style="stop-color:#b4d5e7;stop-opacity:0;"
         offset="1"
         id="stop5579-4" />
    </linearGradient>
    <filter
       inkscape:collect="always"
       id="filter7500"
       x="-0.21997818"
       width="1.4399564"
       y="-0.17672312"
       height="1.3534462"
       color-interpolation-filters="sRGB">
      <feGaussianBlur
         inkscape:collect="always"
         stdDeviation="7.0809973"
         id="feGaussianBlur7502" />
    </filter>
    <filter
       inkscape:collect="always"
       id="filter7672"
       x="-0.09713117"
       width="1.1942623"
       y="-0.30354658"
       height="1.6070932"
       color-interpolation-filters="sRGB">
      <feGaussianBlur
         inkscape:collect="always"
         stdDeviation="57.590691"
         id="feGaussianBlur7674" />
    </filter>
    <linearGradient
       inkscape:collect="always"
       xlink:href="#linearGradient7692"
       id="linearGradient7698"
       x1="-20.967741"
       y1="536.23315"
       x2="227.41936"
       y2="712.03961"
       gradientUnits="userSpaceOnUse" />
    <linearGradient
       inkscape:collect="always"
       xlink:href="#linearGradient7692"
       id="linearGradient4013"
       gradientUnits="userSpaceOnUse"
       x1="-20.967741"
       y1="536.23315"
       x2="227.41936"
       y2="712.03961" />
    <linearGradient
       inkscape:collect="always"
       xlink:href="#linearGradient7692"
       id="linearGradient4015"
       gradientUnits="userSpaceOnUse"
       x1="-20.967741"
       y1="536.23315"
       x2="227.41936"
       y2="712.03961" />
    <linearGradient
       inkscape:collect="always"
       xlink:href="#linearGradient7692"
       id="linearGradient4017"
       gradientUnits="userSpaceOnUse"
       x1="-20.967741"
       y1="536.23315"
       x2="227.41936"
       y2="712.03961" />
    <linearGradient
       inkscape:collect="always"
       xlink:href="#linearGradient7692"
       id="linearGradient4019"
       gradientUnits="userSpaceOnUse"
       x1="-20.967741"
       y1="536.23315"
       x2="227.41936"
       y2="712.03961" />
    <linearGradient
       inkscape:collect="always"
       xlink:href="#linearGradient7692"
       id="linearGradient4021"
       gradientUnits="userSpaceOnUse"
       x1="-20.967741"
       y1="536.23315"
       x2="227.41936"
       y2="712.03961" />
    <linearGradient
       inkscape:collect="always"
       xlink:href="#linearGradient7692"
       id="linearGradient4023"
       gradientUnits="userSpaceOnUse"
       x1="-20.967741"
       y1="536.23315"
       x2="227.41936"
       y2="712.03961" />
    <linearGradient
       inkscape:collect="always"
       xlink:href="#linearGradient7692"
       id="linearGradient4025"
       gradientUnits="userSpaceOnUse"
       x1="-20.967741"
       y1="536.23315"
       x2="227.41936"
       y2="712.03961" />
    <linearGradient
       inkscape:collect="always"
       xlink:href="#linearGradient7692"
       id="linearGradient4027"
       gradientUnits="userSpaceOnUse"
       x1="-20.967741"
       y1="536.23315"
       x2="227.41936"
       y2="712.03961" />
    <linearGradient
       inkscape:collect="always"
       xlink:href="#linearGradient7692"
       id="linearGradient4029"
       gradientUnits="userSpaceOnUse"
       x1="-20.967741"
       y1="536.23315"
       x2="227.41936"
       y2="712.03961" />
    <linearGradient
       inkscape:collect="always"
       xlink:href="#linearGradient7692"
       id="linearGradient4031"
       gradientUnits="userSpaceOnUse"
       x1="-20.967741"
       y1="536.23315"
       x2="227.41936"
       y2="712.03961" />
    <linearGradient
       inkscape:collect="always"
       xlink:href="#linearGradient7692"
       id="linearGradient4033"
       gradientUnits="userSpaceOnUse"
       x1="-20.967741"
       y1="536.23315"
       x2="227.41936"
       y2="712.03961" />
    <linearGradient
       inkscape:collect="always"
       xlink:href="#linearGradient7692"
       id="linearGradient4035"
       gradientUnits="userSpaceOnUse"
       x1="-20.967741"
       y1="536.23315"
       x2="227.41936"
       y2="712.03961" />
    <linearGradient
       inkscape:collect="always"
       xlink:href="#linearGradient7692"
       id="linearGradient4037"
       gradientUnits="userSpaceOnUse"
       x1="-20.967741"
       y1="536.23315"
       x2="227.41936"
       y2="712.03961" />
    <linearGradient
       inkscape:collect="always"
       xlink:href="#linearGradient7692"
       id="linearGradient4039"
       gradientUnits="userSpaceOnUse"
       x1="-20.967741"
       y1="536.23315"
       x2="227.41936"
       y2="712.03961" />
    <linearGradient
       inkscape:collect="always"
       xlink:href="#linearGradient7692"
       id="linearGradient4041"
       gradientUnits="userSpaceOnUse"
       x1="-20.967741"
       y1="536.23315"
       x2="227.41936"
       y2="712.03961" />
    <linearGradient
       inkscape:collect="always"
       xlink:href="#linearGradient7692"
       id="linearGradient4043"
       gradientUnits="userSpaceOnUse"
       x1="-20.967741"
       y1="536.23315"
       x2="227.41936"
       y2="712.03961" />
    <linearGradient
       inkscape:collect="always"
       xlink:href="#linearGradient7692"
       id="linearGradient4045"
       gradientUnits="userSpaceOnUse"
       x1="-20.967741"
       y1="536.23315"
       x2="227.41936"
       y2="712.03961" />
    <linearGradient
       inkscape:collect="always"
       xlink:href="#linearGradient7692"
       id="linearGradient4047"
       gradientUnits="userSpaceOnUse"
       x1="-20.967741"
       y1="536.23315"
       x2="227.41936"
       y2="712.03961" />
    <linearGradient
       inkscape:collect="always"
       xlink:href="#linearGradient7692"
       id="linearGradient4049"
       gradientUnits="userSpaceOnUse"
       x1="-20.967741"
       y1="536.23315"
       x2="227.41936"
       y2="712.03961" />
    <linearGradient
       inkscape:collect="always"
       xlink:href="#linearGradient7692"
       id="linearGradient4051"
       gradientUnits="userSpaceOnUse"
       x1="-20.967741"
       y1="536.23315"
       x2="227.41936"
       y2="712.03961" />
    <linearGradient
       inkscape:collect="always"
       xlink:href="#linearGradient7692"
       id="linearGradient4053"
       gradientUnits="userSpaceOnUse"
       x1="-20.967741"
       y1="536.23315"
       x2="227.41936"
       y2="712.03961" />
    <linearGradient
       inkscape:collect="always"
       xlink:href="#linearGradient7692"
       id="linearGradient4055"
       gradientUnits="userSpaceOnUse"
       x1="-20.967741"
       y1="536.23315"
       x2="227.41936"
       y2="712.03961" />
    <linearGradient
       inkscape:collect="always"
       xlink:href="#linearGradient7692"
       id="linearGradient4057"
       gradientUnits="userSpaceOnUse"
       x1="-20.967741"
       y1="536.23315"
       x2="227.41936"
       y2="712.03961" />
    <linearGradient
       inkscape:collect="always"
       xlink:href="#linearGradient7692"
       id="linearGradient4059"
       gradientUnits="userSpaceOnUse"
       x1="-20.967741"
       y1="536.23315"
       x2="227.41936"
       y2="712.03961" />
  </defs>
  <sodipodi:namedview
     id="base"
     pagecolor="#ffffff"
     bordercolor="#666666"
     borderopacity="1.0"
     inkscape:pageopacity="0.0"
     inkscape:pageshadow="2"
     inkscape:zoom="0.62"
     inkscape:cx="680.90195"
     inkscape:cy="376.30204"
     inkscape:document-units="px"
     inkscape:current-layer="layer1"
     showgrid="false"
     inkscape:window-width="1366"
     inkscape:window-height="718"
     inkscape:window-x="-1"
     inkscape:window-y="0"
     inkscape:window-maximized="1" />
  <metadata
     id="metadata7">
    <rdf:RDF>
      <cc:Work
         rdf:about="">
        <dc:format>image/svg+xml</dc:format>
        <dc:type
           rdf:resource="http://purl.org/dc/dcmitype/StillImage" />
        <dc:title></dc:title>
      </cc:Work>
    </rdf:RDF>
  </metadata>
  <g
     inkscape:label="Layer 1"
     inkscape:groupmode="layer"
     id="layer1"
     transform="translate(0,-284.36218)">
    <rect
       y="284.34937"
       x="-160"
       height="768"
       width="1366"
       id="rect5682"
       style="fill:#99aeb7;fill-opacity:1;fill-rule:nonzero;stroke:none"
       inkscape:export-filename="/home/canci/Desktop/deb/ciel/wallpaper/ciel_wallpaper_1366x768x24.png"
       inkscape:export-xdpi="90"
       inkscape:export-ydpi="90" />
    <rect
       inkscape:export-ydpi="90"
       inkscape:export-xdpi="90"
       inkscape:export-filename="/home/canci/Desktop/deb/ciel/wallpaper/ciel_wallpaper_1366x768x24.png"
       style="fill:url(#linearGradient4325);fill-opacity:1;fill-rule:nonzero;stroke:none"
       id="rect4309"
       width="1366"
       height="768"
       x="-160"
       y="284.34937" />
    <g
       id="g4063"
       style="opacity:0.28888891"
       transform="translate(-160,0)">
      <path
         transform="matrix(0.78082192,0,0,0.78082192,-236.57534,353.59506)"
         style="fill:#ffffff;fill-opacity:1;fill-rule:nonzero;stroke:none"
         d="m 408,468 c 0,41.97364 -32.68321,76 -73,76 -40.31679,0 -73,-34.02636 -73,-76 0,-41.97364 32.68321,-76 73,-76 40.31679,0 73,34.02636 73,76 z"
         id="path3865"
         inkscape:connector-curvature="0" />
      <path
         transform="matrix(0.78082192,0,0,0.78082192,-175.57534,336.93752)"
         style="fill:#ffffff;fill-opacity:1;fill-rule:nonzero;stroke:none"
         d="m 408,468 c 0,41.97364 -32.68321,76 -73,76 -40.31679,0 -73,-34.02636 -73,-76 0,-41.97364 32.68321,-76 73,-76 40.31679,0 73,34.02636 73,76 z"
         id="path3865-8"
         inkscape:connector-curvature="0" />
      <path
         transform="matrix(0.78082192,0,0,0.78082192,-109.57534,316.93752)"
         style="fill:#ffffff;fill-opacity:1;fill-rule:nonzero;stroke:none"
         d="m 408,468 c 0,41.97364 -32.68321,76 -73,76 -40.31679,0 -73,-34.02636 -73,-76 0,-41.97364 32.68321,-76 73,-76 40.31679,0 73,34.02636 73,76 z"
         id="path3865-0"
         inkscape:connector-curvature="0" />
      <path
         transform="matrix(0.78082192,0,0,0.78082192,-41.57534,322.93752)"
         style="fill:#ffffff;fill-opacity:1;fill-rule:nonzero;stroke:none"
         d="m 408,468 c 0,41.97364 -32.68321,76 -73,76 -40.31679,0 -73,-34.02636 -73,-76 0,-41.97364 32.68321,-76 73,-76 40.31679,0 73,34.02636 73,76 z"
         id="path3865-5"
         inkscape:connector-curvature="0" />
      <path
         transform="matrix(0.78082192,0,0,0.78082192,22.424657,338.93752)"
         style="fill:#ffffff;fill-opacity:1;fill-rule:nonzero;stroke:none"
         d="m 408,468 c 0,41.97364 -32.68321,76 -73,76 -40.31679,0 -73,-34.02636 -73,-76 0,-41.97364 32.68321,-76 73,-76 40.31679,0 73,34.02636 73,76 z"
         id="path3865-2"
         inkscape:connector-curvature="0" />
      <path
         transform="matrix(0.78082192,0,0,0.78082192,94.424657,358.93752)"
         style="fill:#ffffff;fill-opacity:1;fill-rule:nonzero;stroke:none"
         d="m 408,468 c 0,41.97364 -32.68321,76 -73,76 -40.31679,0 -73,-34.02636 -73,-76 0,-41.97364 32.68321,-76 73,-76 40.31679,0 73,34.02636 73,76 z"
         id="path3865-02"
         inkscape:connector-curvature="0" />
      <path
         transform="matrix(0.78082192,0,0,0.78082192,170.42466,364.93752)"
         style="fill:#ffffff;fill-opacity:1;fill-rule:nonzero;stroke:none"
         d="m 408,468 c 0,41.97364 -32.68321,76 -73,76 -40.31679,0 -73,-34.02636 -73,-76 0,-41.97364 32.68321,-76 73,-76 40.31679,0 73,34.02636 73,76 z"
         id="path3865-4"
         inkscape:connector-curvature="0" />
      <path
         transform="matrix(0.78082192,0,0,0.78082192,232.42466,352.93752)"
         style="fill:#ffffff;fill-opacity:1;fill-rule:nonzero;stroke:none"
         d="m 408,468 c 0,41.97364 -32.68321,76 -73,76 -40.31679,0 -73,-34.02636 -73,-76 0,-41.97364 32.68321,-76 73,-76 40.31679,0 73,34.02636 73,76 z"
         id="path3865-3"
         inkscape:connector-curvature="0" />
      <path
         transform="matrix(0.78082192,0,0,0.78082192,294.42466,360.93752)"
         style="fill:#ffffff;fill-opacity:1;fill-rule:nonzero;stroke:none"
         d="m 408,468 c 0,41.97364 -32.68321,76 -73,76 -40.31679,0 -73,-34.02636 -73,-76 0,-41.97364 32.68321,-76 73,-76 40.31679,0 73,34.02636 73,76 z"
         id="path3865-7"
         inkscape:connector-curvature="0" />
      <path
         transform="matrix(0.78082192,0,0,0.78082192,352.42466,376.93752)"
         style="fill:#ffffff;fill-opacity:1;fill-rule:nonzero;stroke:none"
         d="m 408,468 c 0,41.97364 -32.68321,76 -73,76 -40.31679,0 -73,-34.02636 -73,-76 0,-41.97364 32.68321,-76 73,-76 40.31679,0 73,34.02636 73,76 z"
         id="path3865-30"
         inkscape:connector-curvature="0" />
      <path
         transform="matrix(0.78082192,0,0,0.78082192,412.42466,370.93752)"
         style="fill:#ffffff;fill-opacity:1;fill-rule:nonzero;stroke:none"
         d="m 408,468 c 0,41.97364 -32.68321,76 -73,76 -40.31679,0 -73,-34.02636 -73,-76 0,-41.97364 32.68321,-76 73,-76 40.31679,0 73,34.02636 73,76 z"
         id="path3865-01"
         inkscape:connector-curvature="0" />
      <path
         transform="matrix(0.78082192,0,0,0.78082192,478.42466,374.93752)"
         style="fill:#ffffff;fill-opacity:1;fill-rule:nonzero;stroke:none"
         d="m 408,468 c 0,41.97364 -32.68321,76 -73,76 -40.31679,0 -73,-34.02636 -73,-76 0,-41.97364 32.68321,-76 73,-76 40.31679,0 73,34.02636 73,76 z"
         id="path3865-58"
         inkscape:connector-curvature="0" />
      <path
         transform="matrix(0.78082192,0,0,0.78082192,540.42466,364.93752)"
         style="fill:#ffffff;fill-opacity:1;fill-rule:nonzero;stroke:none"
         d="m 408,468 c 0,41.97364 -32.68321,76 -73,76 -40.31679,0 -73,-34.02636 -73,-76 0,-41.97364 32.68321,-76 73,-76 40.31679,0 73,34.02636 73,76 z"
         id="path3865-00"
         inkscape:connector-curvature="0" />
      <path
         transform="matrix(0.78082192,0,0,0.78082192,594.42466,346.93752)"
         style="fill:#ffffff;fill-opacity:1;fill-rule:nonzero;stroke:none"
         d="m 408,468 c 0,41.97364 -32.68321,76 -73,76 -40.31679,0 -73,-34.02636 -73,-76 0,-41.97364 32.68321,-76 73,-76 40.31679,0 73,34.02636 73,76 z"
         id="path3865-04"
         inkscape:connector-curvature="0" />
      <path
         transform="matrix(0.78082192,0,0,0.78082192,656.42466,358.93752)"
         style="fill:#ffffff;fill-opacity:1;fill-rule:nonzero;stroke:none"
         d="m 408,468 c 0,41.97364 -32.68321,76 -73,76 -40.31679,0 -73,-34.02636 -73,-76 0,-41.97364 32.68321,-76 73,-76 40.31679,0 73,34.02636 73,76 z"
         id="path3865-75"
         inkscape:connector-curvature="0" />
      <path
         transform="matrix(0.78082192,0,0,0.78082192,732.42466,352.93752)"
         style="fill:#ffffff;fill-opacity:1;fill-rule:nonzero;stroke:none"
         d="m 408,468 c 0,41.97364 -32.68321,76 -73,76 -40.31679,0 -73,-34.02636 -73,-76 0,-41.97364 32.68321,-76 73,-76 40.31679,0 73,34.02636 73,76 z"
         id="path3865-31"
         inkscape:connector-curvature="0" />
      <path
         transform="matrix(0.78082192,0,0,0.78082192,780.42466,378.93752)"
         style="fill:#ffffff;fill-opacity:1;fill-rule:nonzero;stroke:none"
         d="m 408,468 c 0,41.97364 -32.68321,76 -73,76 -40.31679,0 -73,-34.02636 -73,-76 0,-41.97364 32.68321,-76 73,-76 40.31679,0 73,34.02636 73,76 z"
         id="path3865-42"
         inkscape:connector-curvature="0" />
      <path
         transform="matrix(0.78082192,0,0,0.78082192,848.42466,398.93752)"
         style="fill:#ffffff;fill-opacity:1;fill-rule:nonzero;stroke:none"
         d="m 408,468 c 0,41.97364 -32.68321,76 -73,76 -40.31679,0 -73,-34.02636 -73,-76 0,-41.97364 32.68321,-76 73,-76 40.31679,0 73,34.02636 73,76 z"
         id="path3865-013"
         inkscape:connector-curvature="0" />
      <path
         transform="matrix(0.78082192,0,0,0.78082192,908.42466,418.93752)"
         style="fill:#ffffff;fill-opacity:1;fill-rule:nonzero;stroke:none"
         d="m 408,468 c 0,41.97364 -32.68321,76 -73,76 -40.31679,0 -73,-34.02636 -73,-76 0,-41.97364 32.68321,-76 73,-76 40.31679,0 73,34.02636 73,76 z"
         id="path3865-004"
         inkscape:connector-curvature="0" />
      <path
         transform="matrix(0.78082192,0,0,0.78082192,982.42466,438.93752)"
         style="fill:#ffffff;fill-opacity:1;fill-rule:nonzero;stroke:none"
         d="m 408,468 c 0,41.97364 -32.68321,76 -73,76 -40.31679,0 -73,-34.02636 -73,-76 0,-41.97364 32.68321,-76 73,-76 40.31679,0 73,34.02636 73,76 z"
         id="path3865-82"
         inkscape:connector-curvature="0" />
      <path
         transform="matrix(0.78082192,0,0,0.78082192,1024.4247,422.93752)"
         style="fill:#ffffff;fill-opacity:1;fill-rule:nonzero;stroke:none"
         d="m 408,468 c 0,41.97364 -32.68321,76 -73,76 -40.31679,0 -73,-34.02636 -73,-76 0,-41.97364 32.68321,-76 73,-76 40.31679,0 73,34.02636 73,76 z"
         id="path3865-20"
         inkscape:connector-curvature="0" />
      <path
         transform="matrix(0.78082192,0,0,0.78082192,1072.4247,414.93752)"
         style="fill:#ffffff;fill-opacity:1;fill-rule:nonzero;stroke:none"
         d="m 408,468 c 0,41.97364 -32.68321,76 -73,76 -40.31679,0 -73,-34.02636 -73,-76 0,-41.97364 32.68321,-76 73,-76 40.31679,0 73,34.02636 73,76 z"
         id="path3865-24"
         inkscape:connector-curvature="0" />
      <path
         style="fill:#ffffff;fill-opacity:1;fill-rule:nonzero;stroke:none"
         d="m -26,756.36218 1400,0 0,322.00002 -1400,0 z"
         id="rect4043"
         inkscape:connector-curvature="0" />
      <path
         style="fill:#ffffff;fill-opacity:1;fill-rule:nonzero;stroke:none"
         d="m 60,695.36218 414,0 0,322.00002 -414,0 z"
         id="rect4043-0"
         inkscape:connector-curvature="0" />
    </g>
    <rect
       y="284.36218"
       x="-160"
       height="768"
       width="1366"
       id="rect5682-3"
       style="fill:url(#linearGradient4472);fill-opacity:1;fill-rule:nonzero;stroke:none"
       inkscape:export-filename="/home/canci/Desktop/deb/ciel/wallpaper/ciel_wallpaper_1366x768x24.png"
       inkscape:export-xdpi="90"
       inkscape:export-ydpi="90" />
    <g
       inkscape:export-ydpi="90"
       inkscape:export-xdpi="90"
       inkscape:export-filename="/home/canci/Desktop/deb/ciel/wallpaper/ciel_wallpaper_1366x768x24.png"
       style="fill:#c384a4;fill-opacity:1;filter:url(#filter7500)"
       transform="matrix(1.4733651,0,0,1.4927079,174.75256,-143.21743)"
       id="g6598-4">
      <g
         style="fill:#c384a4;fill-opacity:1"
         id="g6600-3"
         transform="matrix(0.08867123,0,0,-0.08867123,-47.135153,858.27849)">
        <path
           style="fill:#c384a4;fill-opacity:1"
           inkscape:connector-curvature="0"
           d="m 3255.5,3850.9 c -18,-0.2 3.4,-9.3 26.8,-12.9 6.5,5.1 12.4,10.2 17.6,15.2 -14.6,-3.6 -29.5,-3.7 -44.4,-2.3"
           id="path6602-4" />
        <path
           style="fill:#c384a4;fill-opacity:1"
           inkscape:connector-curvature="0"
           d="m 3351.9,3874.9 c 10.7,14.8 18.5,31 21.3,47.7 -2.4,-11.9 -8.9,-22.2 -15,-33.1 -33.6,-21.1 -3.2,12.6 0,25.4 -36.1,-45.5 -5,-27.3 -6.3,-40"
           id="path6604-9" />
        <path
           style="fill:#c384a4;fill-opacity:1"
           inkscape:connector-curvature="0"
           d="m 3387.5,3967.6 c 2.2,32.3 -6.4,22.1 -9.2,9.8 3.3,-1.8 6,-22.8 9.2,-9.8"
           id="path6606-5" />
        <path
           style="fill:#c384a4;fill-opacity:1"
           inkscape:connector-curvature="0"
           d="m 3187.3,4409.9 c 9.6,-1.7 20.8,-3.1 19.2,-5.3 10.5,2.3 12.8,4.4 -19.2,5.3"
           id="path6608-4" />
        <path
           style="fill:#c384a4;fill-opacity:1"
           inkscape:connector-curvature="0"
           d="m 3206.5,4404.6 -6.8,-1.5 6.3,0.6 0.5,0.9"
           id="path6610-0" />
        <path
           style="fill:#c384a4;fill-opacity:1"
           inkscape:connector-curvature="0"
           d="m 3505.5,3955.3 c 1.1,-29.1 -8.5,-43.1 -17.1,-68.1 l -15.5,-7.8 c -12.7,-24.6 1.2,-15.6 -7.9,-35.3 -19.8,-17.6 -60.2,-55.2 -73.1,-58.6 -9.5,0.2 6.4,11.1 8.4,15.4 -26.5,-18.2 -21.3,-27.4 -61.9,-38.5 l -1.2,2.7 c -100.2,-47.2 -239.3,46.2 -237.5,173.7 -1.1,-8.1 -3,-6.1 -5.3,-9.4 -5.1,65.6 30.3,131.5 90.1,158.4 58.5,28.9 127,17 168.9,-22 -23,30.1 -68.8,62.1 -123.1,59.1 -53.1,-0.8 -102.9,-34.6 -119.5,-71.3 -27.2,-17.2 -30.4,-66.1 -42.2,-75.1 -16,-117.3 30,-168.1 107.8,-227.7 12.3,-8.3 3.5,-9.5 5.1,-15.8 -25.8,12.1 -49.5,30.4 -69,52.8 10.4,-15.1 21.5,-29.9 35.9,-41.4 -24.4,8.3 -56.9,59.1 -66.4,61.2 42,-75.3 170.5,-132 237.8,-103.9 -31.2,-1.1 -70.7,-0.6 -105.7,12.3 -14.7,7.6 -34.7,23.2 -31.1,26.2 91.8,-34.3 186.7,-26 266.1,37.7 20.2,15.7 42.3,42.5 48.7,42.9 -9.6,-14.5 1.6,-7 -5.7,-19.7 20.1,32.5 -8.8,13.2 20.8,56.1 l 10.9,-15.1 c -4.1,27 33.5,59.7 29.6,102.4 8.7,13 9.7,-14.1 0.5,-44.1 12.7,33.3 3.4,38.7 6.6,66.1 3.5,-9.2 8.2,-19 10.5,-28.7 -8.2,32.1 8.5,54.1 12.7,72.8 -4.1,1.8 -12.8,-14.2 -14.8,23.8 0.3,16.5 4.6,8.6 6.3,12.7 -3.3,1.8 -11.8,14.5 -16.9,38.7 3.7,5.8 10,-14.7 15.1,-15.6 -3.3,19.3 -9,34 -9.2,48.8 -14.9,31.2 -5.3,-4.1 -17.4,13.4 -15.8,49.5 13.2,11.5 15.2,34 24,-34.9 37.7,-88.8 44,-111.2 -4.8,27.2 -12.5,53.7 -22,79.2 7.3,-3.1 -11.8,56.1 9.5,16.9 -22.7,83.5 -97.2,161.6 -165.7,198.2 8.4,-7.7 19,-17.3 15.2,-18.8 -34.1,20.3 -28.1,21.9 -33,30.4 -27.7,11.3 -29.5,-0.9 -47.9,0 -52.3,27.7 -62.4,24.8 -110.5,42.2 l 2.2,-10.3 c -34.7,11.6 -40.4,-4.3 -77.9,0 -2.2,1.8 12,6.4 23.8,8.1 -33.5,-4.4 -31.9,6.7 -64.7,-1.2 8.1,5.7 16.6,9.5 25.2,14.3 -27.3,-1.7 -65.2,-15.9 -53.5,-3 -44.5,-19.9 -123.7,-47.8 -168.1,-89.4 l -1.4,9.3 c -20.4,-24.4 -88.7,-72.9 -94.2,-104.6 l -5.4,-1.3 c -10.6,-17.9 -17.5,-38.2 -25.9,-56.6 -13.8,-23.7 -20.3,-9.1 -18.3,-12.8 -27.2,-55.3 -40.8,-101.7 -52.5,-139.7 8.4,-12.5 0.2,-75 3.4,-125 -13.7,-247 173.4,-486.9 377.8,-542.3 30,-10.7 74.6,-10.3 112.5,-11.4 -44.8,12.8 -50.5,6.8 -94.1,22 -31.4,14.8 -38.3,31.7 -60.6,51 l 8.8,-15.6 c -43.6,15.5 -25.4,19.2 -60.9,30.4 l 9.4,12.3 c -14.1,1.1 -37.4,23.8 -43.8,36.5 l -15.5,-0.7 c -18.6,23 -28.5,39.5 -27.8,52.4 l -5,-8.9 c -5.7,9.7 -68.4,86 -35.9,68.3 -6,5.5 -14,9 -22.8,24.8 l 6.7,7.6 c -15.7,20.1 -28.9,46 -27.9,54.6 8.4,-11.3 14.2,-13.4 19.9,-15.3 -39.5,98.1 -41.8,5.4 -71.7,99.9 l 6.3,0.5 c -4.9,7.3 -7.8,15.3 -11.7,23.1 l 2.7,27.5 c -28.4,32.9 -7.9,140 -3.8,198.7 2.9,23.9 23.8,49.3 39.7,89.2 l -9.7,1.7 c 18.5,32.3 105.9,129.9 146.3,124.9 19.6,24.6 -3.9,0.1 -7.7,6.3 43,44.5 56.5,31.4 85.6,39.4 31.3,18.6 -26.9,-7.2 -12,7.1 54.1,13.8 38.3,31.5 109,38.5 7.4,-4.3 -17.3,-6.6 -23.5,-12.1 45.1,22.1 142.7,17.1 206.1,-12.2 73.6,-34.4 156.3,-136.1 159.5,-231.7 l 3.8,-1 c -1.9,-38 5.8,-82 -7.6,-122.4 l 9.1,19.1"
           id="path6612-1" />
        <path
           style="fill:#c384a4;fill-opacity:1"
           inkscape:connector-curvature="0"
           d="m 3059.3,3826.2 -2.5,-12.6 c 11.8,-16 21.2,-33.4 36.3,-45.9 -10.9,21.1 -18.9,29.9 -33.8,58.5"
           id="path6614-2" />
        <path
           style="fill:#c384a4;fill-opacity:1"
           inkscape:connector-curvature="0"
           d="m 3087.2,3827.3 c -6.2,6.9 -9.9,15.3 -14,23.5 3.9,-14.5 12,-27 19.6,-39.8 l -5.6,16.3"
           id="path6616-8" />
        <path
           style="fill:#c384a4;fill-opacity:1"
           inkscape:connector-curvature="0"
           d="m 3581.3,3934.7 -2.6,-6.6 c -4.9,-34.4 -15.3,-68.4 -31.4,-99.9 17.7,33.2 29.2,69.6 34,106.5"
           id="path6618-2" />
        <path
           style="fill:#c384a4;fill-opacity:1"
           inkscape:connector-curvature="0"
           d="m 3190.9,4418.5 c 12.1,4.4 29.8,2.4 42.7,5.4 -16.8,-1.4 -33.5,-2.3 -50,-4.4 l 7.3,-1"
           id="path6620-5" />
        <path
           style="fill:#c384a4;fill-opacity:1"
           inkscape:connector-curvature="0"
           d="m 2764.3,4191.7 c 2.8,-25.9 -19.5,-36 5,-18.9 13.1,29.5 -5.2,8.1 -5,18.9"
           id="path6622-3" />
        <path
           style="fill:#c384a4;fill-opacity:1"
           inkscape:connector-curvature="0"
           d="m 2735.6,4071.7 c 5.6,17.3 6.6,27.7 8.8,37.7 -15.6,-19.9 -7.2,-24.2 -8.8,-37.7"
           id="path6624-3" />
      </g>
    </g>
    <g
       id="g5421"
       transform="matrix(1.4607454,0,0,1.4799227,177.52368,-137.22551)"
       style="opacity:0.32444446;fill:#2d2d2d;fill-opacity:1"
       inkscape:export-filename="/home/canci/Desktop/deb/ciel/wallpaper/ciel_wallpaper_1366x768x24.png"
       inkscape:export-xdpi="90"
       inkscape:export-ydpi="90">
      <g
         transform="matrix(0.08867123,0,0,-0.08867123,-47.135153,858.27849)"
         id="GROUP_BEGIN_2"
         style="fill:#2d2d2d;fill-opacity:1">
        <path
           id="PATH_1"
           d="m 3255.5,3850.9 c -18,-0.2 3.4,-9.3 26.8,-12.9 6.5,5.1 12.4,10.2 17.6,15.2 -14.6,-3.6 -29.5,-3.7 -44.4,-2.3"
           inkscape:connector-curvature="0"
           style="fill:#2d2d2d;fill-opacity:1" />
        <path
           id="PATH_2"
           d="m 3351.9,3874.9 c 10.7,14.8 18.5,31 21.3,47.7 -2.4,-11.9 -8.9,-22.2 -15,-33.1 -33.6,-21.1 -3.2,12.6 0,25.4 -36.1,-45.5 -5,-27.3 -6.3,-40"
           inkscape:connector-curvature="0"
           style="fill:#2d2d2d;fill-opacity:1" />
        <path
           id="PATH_3"
           d="m 3387.5,3967.6 c 2.2,32.3 -6.4,22.1 -9.2,9.8 3.3,-1.8 6,-22.8 9.2,-9.8"
           inkscape:connector-curvature="0"
           style="fill:#2d2d2d;fill-opacity:1" />
        <path
           id="PATH_4"
           d="m 3187.3,4409.9 c 9.6,-1.7 20.8,-3.1 19.2,-5.3 10.5,2.3 12.8,4.4 -19.2,5.3"
           inkscape:connector-curvature="0"
           style="fill:#2d2d2d;fill-opacity:1" />
        <path
           id="PATH_5"
           d="m 3206.5,4404.6 -6.8,-1.5 6.3,0.6 0.5,0.9"
           inkscape:connector-curvature="0"
           style="fill:#2d2d2d;fill-opacity:1" />
        <path
           id="PATH_6"
           d="m 3505.5,3955.3 c 1.1,-29.1 -8.5,-43.1 -17.1,-68.1 l -15.5,-7.8 c -12.7,-24.6 1.2,-15.6 -7.9,-35.3 -19.8,-17.6 -60.2,-55.2 -73.1,-58.6 -9.5,0.2 6.4,11.1 8.4,15.4 -26.5,-18.2 -21.3,-27.4 -61.9,-38.5 l -1.2,2.7 c -100.2,-47.2 -239.3,46.2 -237.5,173.7 -1.1,-8.1 -3,-6.1 -5.3,-9.4 -5.1,65.6 30.3,131.5 90.1,158.4 58.5,28.9 127,17 168.9,-22 -23,30.1 -68.8,62.1 -123.1,59.1 -53.1,-0.8 -102.9,-34.6 -119.5,-71.3 -27.2,-17.2 -30.4,-66.1 -42.2,-75.1 -16,-117.3 30,-168.1 107.8,-227.7 12.3,-8.3 3.5,-9.5 5.1,-15.8 -25.8,12.1 -49.5,30.4 -69,52.8 10.4,-15.1 21.5,-29.9 35.9,-41.4 -24.4,8.3 -56.9,59.1 -66.4,61.2 42,-75.3 170.5,-132 237.8,-103.9 -31.2,-1.1 -70.7,-0.6 -105.7,12.3 -14.7,7.6 -34.7,23.2 -31.1,26.2 91.8,-34.3 186.7,-26 266.1,37.7 20.2,15.7 42.3,42.5 48.7,42.9 -9.6,-14.5 1.6,-7 -5.7,-19.7 20.1,32.5 -8.8,13.2 20.8,56.1 l 10.9,-15.1 c -4.1,27 33.5,59.7 29.6,102.4 8.7,13 9.7,-14.1 0.5,-44.1 12.7,33.3 3.4,38.7 6.6,66.1 3.5,-9.2 8.2,-19 10.5,-28.7 -8.2,32.1 8.5,54.1 12.7,72.8 -4.1,1.8 -12.8,-14.2 -14.8,23.8 0.3,16.5 4.6,8.6 6.3,12.7 -3.3,1.8 -11.8,14.5 -16.9,38.7 3.7,5.8 10,-14.7 15.1,-15.6 -3.3,19.3 -9,34 -9.2,48.8 -14.9,31.2 -5.3,-4.1 -17.4,13.4 -15.8,49.5 13.2,11.5 15.2,34 24,-34.9 37.7,-88.8 44,-111.2 -4.8,27.2 -12.5,53.7 -22,79.2 7.3,-3.1 -11.8,56.1 9.5,16.9 -22.7,83.5 -97.2,161.6 -165.7,198.2 8.4,-7.7 19,-17.3 15.2,-18.8 -34.1,20.3 -28.1,21.9 -33,30.4 -27.7,11.3 -29.5,-0.9 -47.9,0 -52.3,27.7 -62.4,24.8 -110.5,42.2 l 2.2,-10.3 c -34.7,11.6 -40.4,-4.3 -77.9,0 -2.2,1.8 12,6.4 23.8,8.1 -33.5,-4.4 -31.9,6.7 -64.7,-1.2 8.1,5.7 16.6,9.5 25.2,14.3 -27.3,-1.7 -65.2,-15.9 -53.5,-3 -44.5,-19.9 -123.7,-47.8 -168.1,-89.4 l -1.4,9.3 c -20.4,-24.4 -88.7,-72.9 -94.2,-104.6 l -5.4,-1.3 c -10.6,-17.9 -17.5,-38.2 -25.9,-56.6 -13.8,-23.7 -20.3,-9.1 -18.3,-12.8 -27.2,-55.3 -40.8,-101.7 -52.5,-139.7 8.4,-12.5 0.2,-75 3.4,-125 -13.7,-247 173.4,-486.9 377.8,-542.3 30,-10.7 74.6,-10.3 112.5,-11.4 -44.8,12.8 -50.5,6.8 -94.1,22 -31.4,14.8 -38.3,31.7 -60.6,51 l 8.8,-15.6 c -43.6,15.5 -25.4,19.2 -60.9,30.4 l 9.4,12.3 c -14.1,1.1 -37.4,23.8 -43.8,36.5 l -15.5,-0.7 c -18.6,23 -28.5,39.5 -27.8,52.4 l -5,-8.9 c -5.7,9.7 -68.4,86 -35.9,68.3 -6,5.5 -14,9 -22.8,24.8 l 6.7,7.6 c -15.7,20.1 -28.9,46 -27.9,54.6 8.4,-11.3 14.2,-13.4 19.9,-15.3 -39.5,98.1 -41.8,5.4 -71.7,99.9 l 6.3,0.5 c -4.9,7.3 -7.8,15.3 -11.7,23.1 l 2.7,27.5 c -28.4,32.9 -7.9,140 -3.8,198.7 2.9,23.9 23.8,49.3 39.7,89.2 l -9.7,1.7 c 18.5,32.3 105.9,129.9 146.3,124.9 19.6,24.6 -3.9,0.1 -7.7,6.3 43,44.5 56.5,31.4 85.6,39.4 31.3,18.6 -26.9,-7.2 -12,7.1 54.1,13.8 38.3,31.5 109,38.5 7.4,-4.3 -17.3,-6.6 -23.5,-12.1 45.1,22.1 142.7,17.1 206.1,-12.2 73.6,-34.4 156.3,-136.1 159.5,-231.7 l 3.8,-1 c -1.9,-38 5.8,-82 -7.6,-122.4 l 9.1,19.1"
           inkscape:connector-curvature="0"
           style="fill:#2d2d2d;fill-opacity:1" />
        <path
           id="PATH_7"
           d="m 3059.3,3826.2 -2.5,-12.6 c 11.8,-16 21.2,-33.4 36.3,-45.9 -10.9,21.1 -18.9,29.9 -33.8,58.5"
           inkscape:connector-curvature="0"
           style="fill:#2d2d2d;fill-opacity:1" />
        <path
           id="PATH_8"
           d="m 3087.2,3827.3 c -6.2,6.9 -9.9,15.3 -14,23.5 3.9,-14.5 12,-27 19.6,-39.8 l -5.6,16.3"
           inkscape:connector-curvature="0"
           style="fill:#2d2d2d;fill-opacity:1" />
        <path
           id="PATH_9"
           d="m 3581.3,3934.7 -2.6,-6.6 c -4.9,-34.4 -15.3,-68.4 -31.4,-99.9 17.7,33.2 29.2,69.6 34,106.5"
           inkscape:connector-curvature="0"
           style="fill:#2d2d2d;fill-opacity:1" />
        <path
           id="PATH_10"
           d="m 3190.9,4418.5 c 12.1,4.4 29.8,2.4 42.7,5.4 -16.8,-1.4 -33.5,-2.3 -50,-4.4 l 7.3,-1"
           inkscape:connector-curvature="0"
           style="fill:#2d2d2d;fill-opacity:1" />
        <path
           id="PATH_11"
           d="m 2764.3,4191.7 c 2.8,-25.9 -19.5,-36 5,-18.9 13.1,29.5 -5.2,8.1 -5,18.9"
           inkscape:connector-curvature="0"
           style="fill:#2d2d2d;fill-opacity:1" />
        <path
           id="PATH_12"
           d="m 2735.6,4071.7 c 5.6,17.3 6.6,27.7 8.8,37.7 -15.6,-19.9 -7.2,-24.2 -8.8,-37.7"
           inkscape:connector-curvature="0"
           style="fill:#2d2d2d;fill-opacity:1" />
      </g>
    </g>
    <g
       id="g5421-6"
       transform="matrix(1.4733651,0,0,1.4927079,174.75256,-143.21743)"
       style="opacity:0.69711537;fill:#de92a7;fill-opacity:1"
       inkscape:export-filename="/home/canci/Desktop/deb/ciel/wallpaper/ciel_wallpaper_1366x768x24.png"
       inkscape:export-xdpi="90"
       inkscape:export-ydpi="90">
      <g
         transform="matrix(0.08867123,0,0,-0.08867123,-47.135153,858.27849)"
         id="GROUP_BEGIN_2-9"
         style="fill:#de92a7;fill-opacity:1">
        <path
           id="PATH_1-03"
           d="m 3255.5,3850.9 c -18,-0.2 3.4,-9.3 26.8,-12.9 6.5,5.1 12.4,10.2 17.6,15.2 -14.6,-3.6 -29.5,-3.7 -44.4,-2.3"
           inkscape:connector-curvature="0"
           style="fill:#de92a7;fill-opacity:1" />
        <path
           id="PATH_2-7"
           d="m 3351.9,3874.9 c 10.7,14.8 18.5,31 21.3,47.7 -2.4,-11.9 -8.9,-22.2 -15,-33.1 -33.6,-21.1 -3.2,12.6 0,25.4 -36.1,-45.5 -5,-27.3 -6.3,-40"
           inkscape:connector-curvature="0"
           style="fill:#de92a7;fill-opacity:1" />
        <path
           id="PATH_3-04"
           d="m 3387.5,3967.6 c 2.2,32.3 -6.4,22.1 -9.2,9.8 3.3,-1.8 6,-22.8 9.2,-9.8"
           inkscape:connector-curvature="0"
           style="fill:#de92a7;fill-opacity:1" />
        <path
           id="PATH_4-2"
           d="m 3187.3,4409.9 c 9.6,-1.7 20.8,-3.1 19.2,-5.3 10.5,2.3 12.8,4.4 -19.2,5.3"
           inkscape:connector-curvature="0"
           style="fill:#de92a7;fill-opacity:1" />
        <path
           id="PATH_5-6"
           d="m 3206.5,4404.6 -6.8,-1.5 6.3,0.6 0.5,0.9"
           inkscape:connector-curvature="0"
           style="fill:#de92a7;fill-opacity:1" />
        <path
           id="PATH_6-2"
           d="m 3505.5,3955.3 c 1.1,-29.1 -8.5,-43.1 -17.1,-68.1 l -15.5,-7.8 c -12.7,-24.6 1.2,-15.6 -7.9,-35.3 -19.8,-17.6 -60.2,-55.2 -73.1,-58.6 -9.5,0.2 6.4,11.1 8.4,15.4 -26.5,-18.2 -21.3,-27.4 -61.9,-38.5 l -1.2,2.7 c -100.2,-47.2 -239.3,46.2 -237.5,173.7 -1.1,-8.1 -3,-6.1 -5.3,-9.4 -5.1,65.6 30.3,131.5 90.1,158.4 58.5,28.9 127,17 168.9,-22 -23,30.1 -68.8,62.1 -123.1,59.1 -53.1,-0.8 -102.9,-34.6 -119.5,-71.3 -27.2,-17.2 -30.4,-66.1 -42.2,-75.1 -16,-117.3 30,-168.1 107.8,-227.7 12.3,-8.3 3.5,-9.5 5.1,-15.8 -25.8,12.1 -49.5,30.4 -69,52.8 10.4,-15.1 21.5,-29.9 35.9,-41.4 -24.4,8.3 -56.9,59.1 -66.4,61.2 42,-75.3 170.5,-132 237.8,-103.9 -31.2,-1.1 -70.7,-0.6 -105.7,12.3 -14.7,7.6 -34.7,23.2 -31.1,26.2 91.8,-34.3 186.7,-26 266.1,37.7 20.2,15.7 42.3,42.5 48.7,42.9 -9.6,-14.5 1.6,-7 -5.7,-19.7 20.1,32.5 -8.8,13.2 20.8,56.1 l 10.9,-15.1 c -4.1,27 33.5,59.7 29.6,102.4 8.7,13 9.7,-14.1 0.5,-44.1 12.7,33.3 3.4,38.7 6.6,66.1 3.5,-9.2 8.2,-19 10.5,-28.7 -8.2,32.1 8.5,54.1 12.7,72.8 -4.1,1.8 -12.8,-14.2 -14.8,23.8 0.3,16.5 4.6,8.6 6.3,12.7 -3.3,1.8 -11.8,14.5 -16.9,38.7 3.7,5.8 10,-14.7 15.1,-15.6 -3.3,19.3 -9,34 -9.2,48.8 -14.9,31.2 -5.3,-4.1 -17.4,13.4 -15.8,49.5 13.2,11.5 15.2,34 24,-34.9 37.7,-88.8 44,-111.2 -4.8,27.2 -12.5,53.7 -22,79.2 7.3,-3.1 -11.8,56.1 9.5,16.9 -22.7,83.5 -97.2,161.6 -165.7,198.2 8.4,-7.7 19,-17.3 15.2,-18.8 -34.1,20.3 -28.1,21.9 -33,30.4 -27.7,11.3 -29.5,-0.9 -47.9,0 -52.3,27.7 -62.4,24.8 -110.5,42.2 l 2.2,-10.3 c -34.7,11.6 -40.4,-4.3 -77.9,0 -2.2,1.8 12,6.4 23.8,8.1 -33.5,-4.4 -31.9,6.7 -64.7,-1.2 8.1,5.7 16.6,9.5 25.2,14.3 -27.3,-1.7 -65.2,-15.9 -53.5,-3 -44.5,-19.9 -123.7,-47.8 -168.1,-89.4 l -1.4,9.3 c -20.4,-24.4 -88.7,-72.9 -94.2,-104.6 l -5.4,-1.3 c -10.6,-17.9 -17.5,-38.2 -25.9,-56.6 -13.8,-23.7 -20.3,-9.1 -18.3,-12.8 -27.2,-55.3 -40.8,-101.7 -52.5,-139.7 8.4,-12.5 0.2,-75 3.4,-125 -13.7,-247 173.4,-486.9 377.8,-542.3 30,-10.7 74.6,-10.3 112.5,-11.4 -44.8,12.8 -50.5,6.8 -94.1,22 -31.4,14.8 -38.3,31.7 -60.6,51 l 8.8,-15.6 c -43.6,15.5 -25.4,19.2 -60.9,30.4 l 9.4,12.3 c -14.1,1.1 -37.4,23.8 -43.8,36.5 l -15.5,-0.7 c -18.6,23 -28.5,39.5 -27.8,52.4 l -5,-8.9 c -5.7,9.7 -68.4,86 -35.9,68.3 -6,5.5 -14,9 -22.8,24.8 l 6.7,7.6 c -15.7,20.1 -28.9,46 -27.9,54.6 8.4,-11.3 14.2,-13.4 19.9,-15.3 -39.5,98.1 -41.8,5.4 -71.7,99.9 l 6.3,0.5 c -4.9,7.3 -7.8,15.3 -11.7,23.1 l 2.7,27.5 c -28.4,32.9 -7.9,140 -3.8,198.7 2.9,23.9 23.8,49.3 39.7,89.2 l -9.7,1.7 c 18.5,32.3 105.9,129.9 146.3,124.9 19.6,24.6 -3.9,0.1 -7.7,6.3 43,44.5 56.5,31.4 85.6,39.4 31.3,18.6 -26.9,-7.2 -12,7.1 54.1,13.8 38.3,31.5 109,38.5 7.4,-4.3 -17.3,-6.6 -23.5,-12.1 45.1,22.1 142.7,17.1 206.1,-12.2 73.6,-34.4 156.3,-136.1 159.5,-231.7 l 3.8,-1 c -1.9,-38 5.8,-82 -7.6,-122.4 l 9.1,19.1"
           inkscape:connector-curvature="0"
           style="fill:#de92a7;fill-opacity:1" />
        <path
           id="PATH_7-6"
           d="m 3059.3,3826.2 -2.5,-12.6 c 11.8,-16 21.2,-33.4 36.3,-45.9 -10.9,21.1 -18.9,29.9 -33.8,58.5"
           inkscape:connector-curvature="0"
           style="fill:#de92a7;fill-opacity:1" />
        <path
           id="PATH_8-2"
           d="m 3087.2,3827.3 c -6.2,6.9 -9.9,15.3 -14,23.5 3.9,-14.5 12,-27 19.6,-39.8 l -5.6,16.3"
           inkscape:connector-curvature="0"
           style="fill:#de92a7;fill-opacity:1" />
        <path
           id="PATH_9-7"
           d="m 3581.3,3934.7 -2.6,-6.6 c -4.9,-34.4 -15.3,-68.4 -31.4,-99.9 17.7,33.2 29.2,69.6 34,106.5"
           inkscape:connector-curvature="0"
           style="fill:#de92a7;fill-opacity:1" />
        <path
           id="PATH_10-6"
           d="m 3190.9,4418.5 c 12.1,4.4 29.8,2.4 42.7,5.4 -16.8,-1.4 -33.5,-2.3 -50,-4.4 l 7.3,-1"
           inkscape:connector-curvature="0"
           style="fill:#de92a7;fill-opacity:1" />
        <path
           id="PATH_11-7"
           d="m 2764.3,4191.7 c 2.8,-25.9 -19.5,-36 5,-18.9 13.1,29.5 -5.2,8.1 -5,18.9"
           inkscape:connector-curvature="0"
           style="fill:#de92a7;fill-opacity:1" />
        <path
           id="PATH_12-2"
           d="m 2735.6,4071.7 c 5.6,17.3 6.6,27.7 8.8,37.7 -15.6,-19.9 -7.2,-24.2 -8.8,-37.7"
           inkscape:connector-curvature="0"
           style="fill:#de92a7;fill-opacity:1" />
      </g>
    </g>
    <g
       style="opacity:0.25480772;fill:url(#linearGradient7698);fill-opacity:1;filter:url(#filter7672)"
       id="g7598"
       transform="translate(-160,0)">
      <path
         id="path7600"
         d="m 408,468 c 0,41.97364 -32.68321,76 -73,76 -40.31679,0 -73,-34.02636 -73,-76 0,-41.97364 32.68321,-76 73,-76 40.31679,0 73,34.02636 73,76 z"
         style="fill:url(#linearGradient4013);fill-opacity:1;fill-rule:nonzero;stroke:none"
         transform="matrix(0.78082192,0,0,0.78082192,-236.57534,353.59506)"
         inkscape:connector-curvature="0" />
      <path
         id="path7602"
         d="m 408,468 c 0,41.97364 -32.68321,76 -73,76 -40.31679,0 -73,-34.02636 -73,-76 0,-41.97364 32.68321,-76 73,-76 40.31679,0 73,34.02636 73,76 z"
         style="fill:url(#linearGradient4015);fill-opacity:1;fill-rule:nonzero;stroke:none"
         transform="matrix(0.78082192,0,0,0.78082192,-175.57534,336.93752)"
         inkscape:connector-curvature="0" />
      <path
         id="path7604"
         d="m 408,468 c 0,41.97364 -32.68321,76 -73,76 -40.31679,0 -73,-34.02636 -73,-76 0,-41.97364 32.68321,-76 73,-76 40.31679,0 73,34.02636 73,76 z"
         style="fill:url(#linearGradient4017);fill-opacity:1;fill-rule:nonzero;stroke:none"
         transform="matrix(0.78082192,0,0,0.78082192,-109.57534,316.93752)"
         inkscape:connector-curvature="0" />
      <path
         id="path7606"
         d="m 408,468 c 0,41.97364 -32.68321,76 -73,76 -40.31679,0 -73,-34.02636 -73,-76 0,-41.97364 32.68321,-76 73,-76 40.31679,0 73,34.02636 73,76 z"
         style="fill:url(#linearGradient4019);fill-opacity:1;fill-rule:nonzero;stroke:none"
         transform="matrix(0.78082192,0,0,0.78082192,-41.57534,322.93752)"
         inkscape:connector-curvature="0" />
      <path
         id="path7608"
         d="m 408,468 c 0,41.97364 -32.68321,76 -73,76 -40.31679,0 -73,-34.02636 -73,-76 0,-41.97364 32.68321,-76 73,-76 40.31679,0 73,34.02636 73,76 z"
         style="fill:url(#linearGradient4021);fill-opacity:1;fill-rule:nonzero;stroke:none"
         transform="matrix(0.78082192,0,0,0.78082192,22.424657,338.93752)"
         inkscape:connector-curvature="0" />
      <path
         id="path7610"
         d="m 408,468 c 0,41.97364 -32.68321,76 -73,76 -40.31679,0 -73,-34.02636 -73,-76 0,-41.97364 32.68321,-76 73,-76 40.31679,0 73,34.02636 73,76 z"
         style="fill:url(#linearGradient4023);fill-opacity:1;fill-rule:nonzero;stroke:none"
         transform="matrix(0.78082192,0,0,0.78082192,94.424657,358.93752)"
         inkscape:connector-curvature="0" />
      <path
         id="path7612"
         d="m 408,468 c 0,41.97364 -32.68321,76 -73,76 -40.31679,0 -73,-34.02636 -73,-76 0,-41.97364 32.68321,-76 73,-76 40.31679,0 73,34.02636 73,76 z"
         style="fill:url(#linearGradient4025);fill-opacity:1;fill-rule:nonzero;stroke:none"
         transform="matrix(0.78082192,0,0,0.78082192,170.42466,364.93752)"
         inkscape:connector-curvature="0" />
      <path
         id="path7614"
         d="m 408,468 c 0,41.97364 -32.68321,76 -73,76 -40.31679,0 -73,-34.02636 -73,-76 0,-41.97364 32.68321,-76 73,-76 40.31679,0 73,34.02636 73,76 z"
         style="fill:url(#linearGradient4027);fill-opacity:1;fill-rule:nonzero;stroke:none"
         transform="matrix(0.78082192,0,0,0.78082192,232.42466,352.93752)"
         inkscape:connector-curvature="0" />
      <path
         id="path7616"
         d="m 408,468 c 0,41.97364 -32.68321,76 -73,76 -40.31679,0 -73,-34.02636 -73,-76 0,-41.97364 32.68321,-76 73,-76 40.31679,0 73,34.02636 73,76 z"
         style="fill:url(#linearGradient4029);fill-opacity:1;fill-rule:nonzero;stroke:none"
         transform="matrix(0.78082192,0,0,0.78082192,294.42466,360.93752)"
         inkscape:connector-curvature="0" />
      <path
         id="path7618"
         d="m 408,468 c 0,41.97364 -32.68321,76 -73,76 -40.31679,0 -73,-34.02636 -73,-76 0,-41.97364 32.68321,-76 73,-76 40.31679,0 73,34.02636 73,76 z"
         style="fill:url(#linearGradient4031);fill-opacity:1;fill-rule:nonzero;stroke:none"
         transform="matrix(0.78082192,0,0,0.78082192,352.42466,376.93752)"
         inkscape:connector-curvature="0" />
      <path
         id="path7620"
         d="m 408,468 c 0,41.97364 -32.68321,76 -73,76 -40.31679,0 -73,-34.02636 -73,-76 0,-41.97364 32.68321,-76 73,-76 40.31679,0 73,34.02636 73,76 z"
         style="fill:url(#linearGradient4033);fill-opacity:1;fill-rule:nonzero;stroke:none"
         transform="matrix(0.78082192,0,0,0.78082192,412.42466,370.93752)"
         inkscape:connector-curvature="0" />
      <path
         id="path7622"
         d="m 408,468 c 0,41.97364 -32.68321,76 -73,76 -40.31679,0 -73,-34.02636 -73,-76 0,-41.97364 32.68321,-76 73,-76 40.31679,0 73,34.02636 73,76 z"
         style="fill:url(#linearGradient4035);fill-opacity:1;fill-rule:nonzero;stroke:none"
         transform="matrix(0.78082192,0,0,0.78082192,478.42466,374.93752)"
         inkscape:connector-curvature="0" />
      <path
         id="path7624"
         d="m 408,468 c 0,41.97364 -32.68321,76 -73,76 -40.31679,0 -73,-34.02636 -73,-76 0,-41.97364 32.68321,-76 73,-76 40.31679,0 73,34.02636 73,76 z"
         style="fill:url(#linearGradient4037);fill-opacity:1;fill-rule:nonzero;stroke:none"
         transform="matrix(0.78082192,0,0,0.78082192,540.42466,364.93752)"
         inkscape:connector-curvature="0" />
      <path
         id="path7626"
         d="m 408,468 c 0,41.97364 -32.68321,76 -73,76 -40.31679,0 -73,-34.02636 -73,-76 0,-41.97364 32.68321,-76 73,-76 40.31679,0 73,34.02636 73,76 z"
         style="fill:url(#linearGradient4039);fill-opacity:1;fill-rule:nonzero;stroke:none"
         transform="matrix(0.78082192,0,0,0.78082192,594.42466,346.93752)"
         inkscape:connector-curvature="0" />
      <path
         id="path7628"
         d="m 408,468 c 0,41.97364 -32.68321,76 -73,76 -40.31679,0 -73,-34.02636 -73,-76 0,-41.97364 32.68321,-76 73,-76 40.31679,0 73,34.02636 73,76 z"
         style="fill:url(#linearGradient4041);fill-opacity:1;fill-rule:nonzero;stroke:none"
         transform="matrix(0.78082192,0,0,0.78082192,656.42466,358.93752)"
         inkscape:connector-curvature="0" />
      <path
         id="path7630"
         d="m 408,468 c 0,41.97364 -32.68321,76 -73,76 -40.31679,0 -73,-34.02636 -73,-76 0,-41.97364 32.68321,-76 73,-76 40.31679,0 73,34.02636 73,76 z"
         style="fill:url(#linearGradient4043);fill-opacity:1;fill-rule:nonzero;stroke:none"
         transform="matrix(0.78082192,0,0,0.78082192,732.42466,352.93752)"
         inkscape:connector-curvature="0" />
      <path
         id="path7632"
         d="m 408,468 c 0,41.97364 -32.68321,76 -73,76 -40.31679,0 -73,-34.02636 -73,-76 0,-41.97364 32.68321,-76 73,-76 40.31679,0 73,34.02636 73,76 z"
         style="fill:url(#linearGradient4045);fill-opacity:1;fill-rule:nonzero;stroke:none"
         transform="matrix(0.78082192,0,0,0.78082192,780.42466,378.93752)"
         inkscape:connector-curvature="0" />
      <path
         id="path7634"
         d="m 408,468 c 0,41.97364 -32.68321,76 -73,76 -40.31679,0 -73,-34.02636 -73,-76 0,-41.97364 32.68321,-76 73,-76 40.31679,0 73,34.02636 73,76 z"
         style="fill:url(#linearGradient4047);fill-opacity:1;fill-rule:nonzero;stroke:none"
         transform="matrix(0.78082192,0,0,0.78082192,848.42466,398.93752)"
         inkscape:connector-curvature="0" />
      <path
         id="path7636"
         d="m 408,468 c 0,41.97364 -32.68321,76 -73,76 -40.31679,0 -73,-34.02636 -73,-76 0,-41.97364 32.68321,-76 73,-76 40.31679,0 73,34.02636 73,76 z"
         style="fill:url(#linearGradient4049);fill-opacity:1;fill-rule:nonzero;stroke:none"
         transform="matrix(0.78082192,0,0,0.78082192,908.42466,418.93752)"
         inkscape:connector-curvature="0" />
      <path
         id="path7638"
         d="m 408,468 c 0,41.97364 -32.68321,76 -73,76 -40.31679,0 -73,-34.02636 -73,-76 0,-41.97364 32.68321,-76 73,-76 40.31679,0 73,34.02636 73,76 z"
         style="fill:url(#linearGradient4051);fill-opacity:1;fill-rule:nonzero;stroke:none"
         transform="matrix(0.78082192,0,0,0.78082192,982.42466,438.93752)"
         inkscape:connector-curvature="0" />
      <path
         id="path7640"
         d="m 408,468 c 0,41.97364 -32.68321,76 -73,76 -40.31679,0 -73,-34.02636 -73,-76 0,-41.97364 32.68321,-76 73,-76 40.31679,0 73,34.02636 73,76 z"
         style="fill:url(#linearGradient4053);fill-opacity:1;fill-rule:nonzero;stroke:none"
         transform="matrix(0.78082192,0,0,0.78082192,1024.4247,422.93752)"
         inkscape:connector-curvature="0" />
      <path
         id="path7642"
         d="m 408,468 c 0,41.97364 -32.68321,76 -73,76 -40.31679,0 -73,-34.02636 -73,-76 0,-41.97364 32.68321,-76 73,-76 40.31679,0 73,34.02636 73,76 z"
         style="fill:url(#linearGradient4055);fill-opacity:1;fill-rule:nonzero;stroke:none"
         transform="matrix(0.78082192,0,0,0.78082192,1072.4247,414.93752)"
         inkscape:connector-curvature="0" />
      <path
         id="path7644"
         d="m -26,756.36218 1400,0 0,322.00002 -1400,0 z"
         style="fill:url(#linearGradient4057);fill-opacity:1;fill-rule:nonzero;stroke:none"
         inkscape:connector-curvature="0" />
      <path
         id="path7646"
         d="m 60,695.36218 414,0 0,322.00002 -414,0 z"
         style="fill:url(#linearGradient4059);fill-opacity:1;fill-rule:nonzero;stroke:none"
         inkscape:connector-curvature="0" />
    </g>
  </g>
</svg>
