<?xml version="1.0" encoding="UTF-8" standalone="no"?>
<!-- Created with Inkscape (http://www.inkscape.org/) -->

<svg
   xmlns:dc="http://purl.org/dc/elements/1.1/"
   xmlns:cc="http://creativecommons.org/ns#"
   xmlns:rdf="http://www.w3.org/1999/02/22-rdf-syntax-ns#"
   xmlns:svg="http://www.w3.org/2000/svg"
   xmlns="http://www.w3.org/2000/svg"
   xmlns:xlink="http://www.w3.org/1999/xlink"
   xmlns:sodipodi="http://sodipodi.sourceforge.net/DTD/sodipodi-0.dtd"
   xmlns:inkscape="http://www.inkscape.org/namespaces/inkscape"
   width="1024"
   height="768"
   id="svg2"
   version="1.1"
   inkscape:version="0.48.0 r9654"
   sodipodi:docname="ciel_wallpaper_1024x768x24.svg"
   inkscape:export-filename="/home/canci/Desktop/ciel-2.1/wallpaper/ciel_wallpaper_1366x768x24.svg.png"
   inkscape:export-xdpi="90"
   inkscape:export-ydpi="90">
  <defs
     id="defs4">
    <linearGradient
       inkscape:collect="always"
       id="linearGradient7692">
      <stop
         style="stop-color:#000000;stop-opacity:1;"
         offset="0"
         id="stop7694" />
      <stop
         style="stop-color:#000000;stop-opacity:0;"
         offset="1"
         id="stop7696" />
    </linearGradient>
    <linearGradient
       id="linearGradient4466">
      <stop
         style="stop-color:#dde4e7;stop-opacity:1;"
         offset="0"
         id="stop4468" />
      <stop
         style="stop-color:#95b9f1;stop-opacity:0;"
         offset="1"
         id="stop4470" />
    </linearGradient>
    <linearGradient
       id="linearGradient4319">
      <stop
         style="stop-color:#dde4e7;stop-opacity:1;"
         offset="0"
         id="stop4321" />
      <stop
         style="stop-color:#5d93ea;stop-opacity:0;"
         offset="1"
         id="stop4323" />
    </linearGradient>
    <linearGradient
       inkscape:collect="always"
       id="linearGradient4157">
      <stop
         style="stop-color:#ffffff;stop-opacity:1;"
         offset="0"
         id="stop4159" />
      <stop
         style="stop-color:#ffffff;stop-opacity:0;"
         offset="1"
         id="stop4161" />
    </linearGradient>
    <linearGradient
       inkscape:collect="always"
       id="linearGradient5674">
      <stop
         style="stop-color:#ffffff;stop-opacity:1;"
         offset="0"
         id="stop5676" />
      <stop
         style="stop-color:#ffffff;stop-opacity:0;"
         offset="1"
         id="stop5678" />
    </linearGradient>
    <linearGradient
       id="linearGradient5575">
      <stop
         style="stop-color:#cdcdcd;stop-opacity:1;"
         offset="0"
         id="stop5577" />
      <stop
         style="stop-color:#b4d5e7;stop-opacity:0;"
         offset="1"
         id="stop5579" />
    </linearGradient>
    <linearGradient
       inkscape:collect="always"
       id="linearGradient3974">
      <stop
         style="stop-color:#ffffff;stop-opacity:1;"
         offset="0"
         id="stop3976" />
      <stop
         style="stop-color:#ffffff;stop-opacity:0;"
         offset="1"
         id="stop3978" />
    </linearGradient>
    <linearGradient
       inkscape:collect="always"
       id="linearGradient3932">
      <stop
         style="stop-color:#cbd2d9;stop-opacity:1;"
         offset="0"
         id="stop3934" />
      <stop
         style="stop-color:#cbd2d9;stop-opacity:0;"
         offset="1"
         id="stop3936" />
    </linearGradient>
    <linearGradient
       inkscape:collect="always"
       xlink:href="#linearGradient3932"
       id="linearGradient3938"
       x1="244"
       y1="791.36218"
       x2="243"
       y2="484.36218"
       gradientUnits="userSpaceOnUse" />
    <linearGradient
       inkscape:collect="always"
       xlink:href="#linearGradient3974"
       id="linearGradient3980"
       x1="204"
       y1="265.36218"
       x2="204"
       y2="542.36218"
       gradientUnits="userSpaceOnUse" />
    <defs
       id="defs829" />
    <inkscape:perspective
       id="perspective21"
       inkscape:persp3d-origin="50 : 40 : 1"
       inkscape:vp_z="100 : 60 : 1"
       inkscape:vp_y="0 : 1000 : 0"
       inkscape:vp_x="0 : 60 : 1"
       sodipodi:type="inkscape:persp3d" />
    <linearGradient
       inkscape:collect="always"
       xlink:href="#linearGradient5674"
       id="linearGradient5680"
       x1="267.3992"
       y1="804.31726"
       x2="29.356422"
       y2="431.43607"
       gradientUnits="userSpaceOnUse" />
    <linearGradient
       inkscape:collect="always"
       xlink:href="#linearGradient4157"
       id="linearGradient4163"
       x1="682"
       y1="410.36218"
       x2="682"
       y2="726.36218"
       gradientUnits="userSpaceOnUse"
       gradientTransform="translate(-32.090904,-29.818183)" />
    <linearGradient
       inkscape:collect="always"
       xlink:href="#linearGradient4319"
       id="linearGradient4325"
       x1="20.454546"
       y1="288.72583"
       x2="697.72729"
       y2="581.90765"
       gradientUnits="userSpaceOnUse"
       gradientTransform="translate(-160,0)" />
    <linearGradient
       inkscape:collect="always"
       xlink:href="#linearGradient4466"
       id="linearGradient4472"
       x1="797.72729"
       y1="340.99854"
       x2="797.72729"
       y2="1009.1804"
       gradientUnits="userSpaceOnUse"
       gradientTransform="translate(-160,0)" />
    <linearGradient
       id="linearGradient5575-2">
      <stop
         style="stop-color:#cdcdcd;stop-opacity:1;"
         offset="0"
         id="stop5577-7" />
      <stop
         style="stop-color:#b4d5e7;stop-opacity:0;"
         offset="1"
         id="stop5579-4" />
    </linearGradient>
    <filter
       inkscape:collect="always"
       id="filter7500"
       x="-0.21997818"
       width="1.4399564"
       y="-0.17672312"
       height="1.3534462"
       color-interpolation-filters="sRGB">
      <feGaussianBlur
         inkscape:collect="always"
         stdDeviation="7.0809973"
         id="feGaussianBlur7502" />
    </filter>
    <filter
       inkscape:collect="always"
       id="filter7672"
       x="-0.09713117"
       width="1.1942623"
       y="-0.30354658"
       height="1.6070932"
       color-interpolation-filters="sRGB">
      <feGaussianBlur
         inkscape:collect="always"
         stdDeviation="57.590691"
         id="feGaussianBlur7674" />
    </filter>
    <linearGradient
       inkscape:collect="always"
       xlink:href="#linearGradient7692"
       id="linearGradient7698"
       x1="-20.967741"
       y1="536.23315"
       x2="227.41936"
       y2="712.03961"
       gradientUnits="userSpaceOnUse" />
    <linearGradient
       inkscape:collect="always"
       xlink:href="#linearGradient7692"
       id="linearGradient4013"
       gradientUnits="userSpaceOnUse"
       x1="-20.967741"
       y1="536.23315"
       x2="227.41936"
       y2="712.03961" />
    <linearGradient
       inkscape:collect="always"
       xlink:href="#linearGradient7692"
       id="linearGradient4015"
       gradientUnits="userSpaceOnUse"
       x1="-20.967741"
       y1="536.23315"
       x2="227.41936"
       y2="712.03961" />
    <linearGradient
       inkscape:collect="always"
       xlink:href="#linearGradient7692"
       id="linearGradient4017"
       gradientUnits="userSpaceOnUse"
       x1="-20.967741"
       y1="536.23315"
       x2="227.41936"
       y2="712.03961" />
    <linearGradient
       inkscape:collect="always"
       xlink:href="#linearGradient7692"
       id="linearGradient4019"
       gradientUnits="userSpaceOnUse"
       x1="-20.967741"
       y1="536.23315"
       x2="227.41936"
       y2="712.03961" />
    <linearGradient
       inkscape:collect="always"
       xlink:href="#linearGradient7692"
       id="linearGradient4021"
       gradientUnits="userSpaceOnUse"
       x1="-20.967741"
       y1="536.23315"
       x2="227.41936"
       y2="712.03961" />
    <linearGradient
       inkscape:collect="always"
       xlink:href="#linearGradient7692"
       id="linearGradient4023"
       gradientUnits="userSpaceOnUse"
       x1="-20.967741"
       y1="536.23315"
       x2="227.41936"
       y2="712.03961" />
    <linearGradient
       inkscape:collect="always"
       xlink:href="#linearGradient7692"
       id="linearGradient4025"
       gradientUnits="userSpaceOnUse"
       x1="-20.967741"
       y1="536.23315"
       x2="227.41936"
       y2="712.03961" />
    <linearGradient
       inkscape:collect="always"
       xlink:href="#linearGradient7692"
       id="linearGradient4027"
       gradientUnits="userSpaceOnUse"
       x1="-20.967741"
       y1="536.23315"
       x2="227.41936"
       y2="712.03961" />
    <linearGradient
       inkscape:collect="always"
       xlink:href="#linearGradient7692"
       id="linearGradient4029"
       gradientUnits="userSpaceOnUse"
       x1="-20.967741"
       y1="536.23315"
       x2="227.41936"
       y2="712.03961" />
    <linearGradient
       inkscape:collect="always"
       xlink:href="#linearGradient7692"
       id="linearGradient4031"
       gradientUnits="userSpaceOnUse"
       x1="-20.967741"
       y1="536.23315"
       x2="227.41936"
       y2="712.03961" />
    <linearGradient
       inkscape:collect="always"
       xlink:href="#linearGradient7692"
       id="linearGradient4033"
       gradientUnits="userSpaceOnUse"
       x1="-20.967741"
       y1="536.23315"
       x2="227.41936"
       y2="712.03961" />
    <linearGradient
       inkscape:collect="always"
       xlink:href="#linearGradient7692"
       id="linearGradient4035"
       gradientUnits="userSpaceOnUse"
       x1="-20.967741"
       y1="536.23315"
       x2="227.41936"
       y2="712.03961" />
    <linearGradient
       inkscape:collect="always"
       xlink:href="#linearGradient7692"
       id="linearGradient4037"
       gradientUnits="userSpaceOnUse"
       x1="-20.967741"
       y1="536.23315"
       x2="227.41936"
       y2="712.03961" />
    <linearGradient
       inkscape:collect="always"
       xlink:href="#linearGradient7692"
       id="linearGradient4039"
       gradientUnits="userSpaceOnUse"
       x1="-20.967741"
       y1="536.23315"
       x2="227.41936"
       y2="712.03961" />
    <linearGradient
       inkscape:collect="always"
       xlink:href="#linearGradient7692"
       id="linearGradient4041"
       gradientUnits="userSpaceOnUse"
       x1="-20.967741"
       y1="536.23315"
       x2="227.41936"
       y2="712.03961" />
    <linearGradient
       inkscape:collect="always"
       xlink:href="#linearGradient7692"
       id="linearGradient4043"
       gradientUnits="userSpaceOnUse"
       x1="-20.967741"
       y1="536.23315"
       x2="227.41936"
       y2="712.03961" />
    <linearGradient
       inkscape:collect="always"
       xlink:href="#linearGradient7692"
       id="linearGradient4045"
       gradientUnits="userSpaceOnUse"
       x1="-20.967741"
       y1="536.23315"
       x2="227.41936"
       y2="712.03961" />
    <linearGradient
       inkscape:collect="always"
       xlink:href="#linearGradient7692"
       id="linearGradient4047"
       gradientUnits="userSpaceOnUse"
       x1="-20.967741"
       y1="536.23315"
       x2="227.41936"
       y2="712.03961" />
    <linearGradient
       inkscape:collect="always"
       xlink:href="#linearGradient7692"
       id="linearGradient4049"
       gradientUnits="userSpaceOnUse"
       x1="-20.967741"
       y1="536.23315"
       x2="227.41936"
       y2="712.03961" />
    <linearGradient
       inkscape:collect="always"
       xlink:href="#linearGradient7692"
       id="linearGradient4051"
       gradientUnits="userSpaceOnUse"
       x1="-20.967741"
       y1="536.23315"
       x2="227.41936"
       y2="712.03961" />
    <linearGradient
       inkscape:collect="always"
       xlink:href="#linearGradient7692"
       id="linearGradient4053"
       gradientUnits="userSpaceOnUse"
       x1="-20.967741"
       y1="536.23315"
       x2="227.41936"
       y2="712.03961" />
    <linearGradient
       inkscape:collect="always"
       xlink:href="#linearGradient7692"
       id="linearGradient4055"
       gradientUnits="userSpaceOnUse"
       x1="-20.967741"
       y1="536.23315"
       x2="227.41936"
       y2="712.03961" />
    <linearGradient
       inkscape:collect="always"
       xlink:href="#linearGradient7692"
       id="linearGradient4057"
       gradientUnits="userSpaceOnUse"
       x1="-20.967741"
       y1="536.23315"
       x2="227.41936"
       y2="712.03961" />
    <linearGradient
       inkscape:collect="always"
       xlink:href="#linearGradient7692"
       id="linearGradient4059"
       gradientUnits="userSpaceOnUse"
       x1="-20.967741"
       y1="536.23315"
       x2="227.41936"
       y2="712.03961" />
  </defs>
  <sodipodi:namedview
     id="base"
     pagecolor="#ffffff"
     bordercolor="#666666"
     borderopacity="1.0"
     inkscape:pageopacity="0.0"
     inkscape:pageshadow="2"
     inkscape:zoom="0.62"
     inkscape:cx="680.90195"
     inkscape:cy="376.30204"
     inkscape:document-units="px"
     inkscape:current-layer="layer1"
     showgrid="false"
     inkscape:window-width="1366"
     inkscape:window-height="718"
     inkscape:window-x="-1"
     inkscape:window-y="0"
     inkscape:window-maximized="1" />
  <metadata
     id="metadata7">
    <rdf:RDF>
      <cc:Work
         rdf:about="">
        <dc:format>image/svg+xml</dc:format>
        <dc:type
           rdf:resource="http://purl.org/dc/dcmitype/StillImage" />
        <dc:title></dc:title>
      </cc:Work>
    </rdf:RDF>
  </metadata>
  <g
     inkscape:label="Layer 1"
     inkscape:groupmode="layer"
     id="layer1"
     transform="translate(0,-284.36218)">
    <rect
       y="284.34937"
       x="-160"
       height="768"
       width="1366"
       id="rect5682"
       style="fill:#99aeb7;fill-opacity:1;fill-rule:nonzero;stroke:none"
       inkscape:export-filename="/home/canci/Desktop/deb/ciel/wallpaper/ciel_wallpaper_1366x768x24.png"
       inkscape:export-xdpi="90"
       inkscape:export-ydpi="90" />
    <rect
       inkscape:export-ydpi="90"
       inkscape:export-xdpi="90"
       inkscape:export-filename="/home/canci/Desktop/deb/ciel/wallpaper/ciel_wallpaper_1366x768x24.png"
       style="fill:url(#linearGradient4325);fill-opacity:1;fill-rule:nonzero;stroke:none"
       id="rect4309"
       width="1366"
       height="768"
       x="-160"
       y="284.34937" />
    <g
       id="g4063"
       style="opacity:0.28888891"
       transform="translate(-160,0)">
      <path
         transform="matrix(0.78082192,0,0,0.78082192,-236.57534,353.59506)"
         style="fill:#ffffff;fill-opacity:1;fill-rule:nonzero;stroke:none"
         d="m 408,468 c 0,41.97364 -32.68321,76 -73,76 -40.31679,0 -73,-34.02636 -73,-76 0,-41.97364 32.68321,-76 73,-76 40.31679,0 73,34.02636 73,76 z"
         id="path3865"
         inkscape:connector-curvature="0" />
      <path
         transform="matrix(0.78082192,0,0,0.78082192,-175.57534,336.93752)"
         style="fill:#ffffff;fill-opacity:1;fill-rule:nonzero;stroke:none"
         d="m 408,468 c 0,41.97364 -32.68321,76 -73,76 -40.31679,0 -73,-34.02636 -73,-76 0,-41.97364 32.68321,-76 73,-76 40.31679,0 73,34.02636 73,76 z"
         id="path3865-8"
         inkscape:connector-curvature="0" />
      <path
         transform="matrix(0.78082192,0,0,0.78082192,-109.57534,316.93752)"
         style="fill:#ffffff;fill-opacity:1;fill-rule:nonzero;stroke:none"
         d="m 408,468 c 0,41.97364 -32.68321,76 -73,76 -40.31679,0 -73,-34.02636 -73,-76 0,-41.97364 32.68321,-76 73,-76 40.31679,0 73,34.02636 73,76 z"
         id="path3865-0"
         inkscape:connector-curvature="0" />
      <path
         transform="matrix(0.78082192,0,0,0.78082192,-41.57534,322.93752)"
         style="fill:#ffffff;fill-opacity:1;fill-rule:nonzero;stroke:none"
         d="m 408,468 c 0,41.97364 -32.68321,76 -73,76 -40.31679,0 -73,-34.02636 -73,-76 0,-41.97364 32.68321,-76 73,-76 40.31679,0 73,34.02636 73,76 z"
         id="path3865-5"
         inkscape:connector-curvature="0" />
      <path
         transform="matrix(0.78082192,0,0,0.78082192,22.424657,338.93752)"
         style="fill:#ffffff;fill-opacity:1;fill-rule:nonzero;stroke:none"
         d="m 408,468 c 0,41.97364 -32.68321,76 -73,76 -40.31679,0 -73,-34.02636 -73,-76 0,-41.97364 32.68321,-76 73,-76 40.31679,0 73,34.02636 73,76 z"
         id="path3865-2"
         inkscape:connector-curvature="0" />
      <path
         transform="matrix(0.78082192,0,0,0.78082192,94.424657,358.93752)"
         style="fill:#ffffff;fill-opacity:1;fill-rule:nonzero;stroke:none"
         d="m 408,468 c 0,41.97364 -32.68321,76 -73,76 -40.31679,0 -73,-34.02636 -73,-76 0,-41.97364 32.68321,-76 73,-76 40.31679,0 73,34.02636 73,76 z"
         id="path3865-02"
         inkscape:connector-curvature="0" />
      <path
         transform="matrix(0.78082192,0,0,0.78082192,170.42466,364.93752)"
         style="fill:#ffffff;fill-opacity:1;fill-rule:nonzero;stroke:none"
         d="m 408,468 c 0,41.97364 -32.68321,76 -73,76 -40.31679,0 -73,-34.02636 -73,-76 0,-41.97364 32.68321,-76 73,-76 40.31679,0 73,34.02636 73,76 z"
         id="path3865-4"
         inkscape:connector-curvature="0" />
      <path
         transform="matrix(0.78082192,0,0,0.78082192,232.42466,352.93752)"
         style="fill:#ffffff;fill-opacity:1;fill-rule:nonzero;stroke:none"
         d="m 408,468 c 0,41.97364 -32.68321,76 -73,76 -40.31679,0 -73,-34.02636 -73,-76 0,-41.97364 32.68321,-76 73,-76 40.31679,0 73,34.02636 73,76 z"
         id="path3865-3"
         inkscape:connector-curvature="0" />
      <path
         transform="matrix(0.78082192,0,0,0.78082192,294.42466,360.93752)"
         style="fill:#ffffff;fill-opacity:1;fill-rule:nonzero;stroke:none"
         d="m 408,468 c 0,41.97364 -32.68321,76 -73,76 -40.31679,0 -73,-34.02636 -73,-76 0,-41.97364 32.68321,-76 73,-76 40.31679,0 73,34.02636 73,76 z"
         id="path3865-7"
         inkscape:connector-curvature="0" />
      <path
         transform="matrix(0.78082192,0,0,0.78082192,352.42466,376.93752)"
         style="fill:#ffffff;fill-opacity:1;fill-rule:nonzero;stroke:none"
         d="m 408,468 c 0,41.97364 -32.68321,76 -73,76 -40.31679,0 -73,-34.02636 -73,-76 0,-41.97364 32.68321,-76 73,-76 40.31679,0 73,34.02636 73,76 z"
         id="path3865-30"
         inkscape:connector-curvature="0" />
      <path
         transform="matrix(0.78082192,0,0,0.78082192,412.42466,370.93752)"
         style="fill:#ffffff;fill-opacity:1;fill-rule:nonzero;stroke:none"
         d="m 408,468 c 0,41.97364 -32.68321,76 -73,76 -40.31679,0 -73,-34.02636 -73,-76 0,-41.97364 32.68321,-76 73,-76 40.31679,0 73,34.02636 73,76 z"
         id="path3865-01"
         inkscape:connector-curvature="0" />
      <path
         transform="matrix(0.78082192,0,0,0.78082192,478.42466,374.93752)"
         style="fill:#ffffff;fill-opacity:1;fill-rule:nonzero;stroke:none"
         d="m 408,468 c 0,41.97364 -32.68321,76 -73,76 -40.31679,0 -73,-34.02636 -73,-76 0,-41.97364 32.68321,-76 73,-76 40.31679,0 73,34.02636 73,76 z"
         id="path3865-58"
         inkscape:connector-curvature="0" />
      <path
         transform="matrix(0.78082192,0,0,0.78082192,540.42466,364.93752)"
         style="fill:#ffffff;fill-opacity:1;fill-rule:nonzero;stroke:none"
         d="m 408,468 c 0,41.97364 -32.68321,76 -73,76 -40.31679,0 -73,-34.02636 -73,-76 0,-41.97364 32.68321,-76 73,-76 40.31679,0 73,34.02636 73,76 z"
         id="path3865-00"
         inkscape:connector-curvature="0" />
      <path
         transform="matrix(0.78082192,0,0,0.78082192,594.42466,346.93752)"
         style="fill:#ffffff;fill-opacity:1;fill-rule:nonzero;stroke:none"
         d="m 408,468 c 0,41.97364 -32.68321,76 -73,76 -40.31679,0 -73,-34.02636 -73,-76 0,-41.97364 32.68321,-76 73,-76 40.31679,0 73,34.02636 73,76 z"
         id="path3865-04"
         inkscape:connector-curvature="0" />
      <path
         transform="matrix(0.78082192,0,0,0.78082192,656.42466,358.93752)"
         style="fill:#ffffff;fill-opacity:1;fill-rule:nonzero;stroke:none"
         d="m 408,468 c 0,41.97364 -32.68321,76 -73,76 -40.31679,0 -73,-34.02636 -73,-76 0,-41.97364 32.68321,-76 73,-76 40.31679,0 73,34.02636 73,76 z"
         id="path3865-75"
         inkscape:connector-curvature="0" />
      <path
         transform="matrix(0.78082192,0,0,0.78082192,732.42466,352.93752)"
         style="fill:#ffffff;fill-opacity:1;fill-rule:nonzero;stroke:none"
         d="m 408,468 c 0,41.97364 -32.68321,76 -73,76 -40.31679,0 -73,-34.02636 -73,-76 0,-41.97364 32.68321,-76 73,-76 40.31679,0 73,34.02636 73,76 z"
         id="path3865-31"
         inkscape:connector-curvature="0" />
      <path
         transform="matrix(0.78082192,0,0,0.78082192,780.42466,378.93752)"
         style="fill:#ffffff;fill-opacity:1;fill-rule:nonzero;stroke:none"
         d="m 408,468 c 0,41.97364 -32.68321,76 -73,76 -40.31679,0 -73,-34.02636 -73,-76 0,-41.97364 32.68321,-76 73,-76 40.31679,0 73,34.02636 73,76 z"
         id="path3865-42"
         inkscape:connector-curvature="0" />
      <path
         transform="matrix(0.78082192,0,0,0.78082192,848.42466,398.93752)"
         style="fill:#ffffff;fill-opacity:1;fill-rule:nonzero;stroke:none"
         d="m 408,468 c 0,41.97364 -32.68321,76 -73,76 -40.31679,0 -73,-34.02636 -73,-76 0,-41.97364 32.68321,-76 73,-76 40.31679,0 73,34.02636 73,76 z"
         id="path3865-013"
         inkscape:connector-curvature="0" />
      <path
         transform="matrix(0.78082192,0,0,0.78082192,908.42466,418.93752)"
         style="fill:#ffffff;fill-opacity:1;fill-rule:nonzero;stroke:none"
         d="m 408,468 c 0,41.97364 -32.68321,76 -73,76 -40.31679,0 -73,-34.02636 -73,-76 0,-41.97364 32.68321,-76 73,-76 40.31679,0 73,34.02636 73,76 z"
         id="path3865-004"
         inkscape:connector-curvature="0" />
      <path
         transform="matrix(0.78082192,0,0,0.78082192,982.42466,438.93752)"
         style="fill:#ffffff;fill-opacity:1;fill-rule:nonzero;stroke:none"
         d="m 408,468 c 0,41.97364 -32.68321,76 -73,76 -40.31679,0 -73,-34.02636 -73,-76 0,-41.97364 32.68321,-76 73,-76 40.31679,0 73,34.02636 73,76 z"
         id="path3865-82"
         inkscape:connector-curvature="0" />
      <path
         transform="matrix(0.78082192,0,0,0.78082192,1024.4247,422.93752)"
         style="fill:#ffffff;fill-opacity:1;fill-rule:nonzero;stroke:none"
         d="m 408,468 c 0,41.97364 -32.68321,76 -73,76 -40.31679,0 -73,-34.02636 -73,-76 0,-41.97364 32.68321,-76 73,-76 40.31679,0 73,34.02636 73,76 z"
         id="path3865-20"
         inkscape:connector-curvature="0" />
      <path
         transform="matrix(0.78082192,0,0,0.78082192,1072.4247,414.93752)"
         style="fill:#ffffff;fill-opacity:1;fill-rule:nonzero;stroke:none"
         d="m 408,468 c 0,41.97364 -32.68321,76 -73,76 -40.31679,0 -73,-34.02636 -73,-76 0,-41.97364 32.68321,-76 73,-76 40.31679,0 73,34.02636 73,76 z"
         id="path3865-24"
         inkscape:connector-curvature="0" />
      <path
         style="fill:#ffffff;fill-opacity:1;fill-rule:nonzero;stroke:none"
         d="m -26,756.36218 1400,0 0,322.00002 -1400,0 z"
         id="rect4043"
         inkscape:connector-curvature="0" />
      <path
         style="fill:#ffffff;fill-opacity:1;fill-rule:nonzero;stroke:none"
         d="m 60,695.36218 414,0 0,322.00002 -414,0 z"
         id="rect4043-0"
         inkscape:connector-curvature="0" />
    </g>
    <rect
       y="284.36218"
       x="-160"
       height="768"
       width="1366"
       id="rect5682-3"
       style="fill:url(#linearGradient4472);fill-opacity:1;fill-rule:nonzero;stroke:none"
       inkscape:export-filename="/home/canci/Desktop/deb/ciel/wallpaper/ciel_wallpaper_1366x768x24.png"
       inkscape:export-xdpi="90"
       inkscape:export-ydpi="90" />
    <g
       style="opacity:0.25480772;fill:url(#linearGradient7698);fill-opacity:1;filter:url(#filter7672)"
       id="g7598"
       transform="translate(-160,0)">
      <path
         id="path7600"
         d="m 408,468 c 0,41.97364 -32.68321,76 -73,76 -40.31679,0 -73,-34.02636 -73,-76 0,-41.97364 32.68321,-76 73,-76 40.31679,0 73,34.02636 73,76 z"
         style="fill:url(#linearGradient4013);fill-opacity:1;fill-rule:nonzero;stroke:none"
         transform="matrix(0.78082192,0,0,0.78082192,-236.57534,353.59506)"
         inkscape:connector-curvature="0" />
      <path
         id="path7602"
         d="m 408,468 c 0,41.97364 -32.68321,76 -73,76 -40.31679,0 -73,-34.02636 -73,-76 0,-41.97364 32.68321,-76 73,-76 40.31679,0 73,34.02636 73,76 z"
         style="fill:url(#linearGradient4015);fill-opacity:1;fill-rule:nonzero;stroke:none"
         transform="matrix(0.78082192,0,0,0.78082192,-175.57534,336.93752)"
         inkscape:connector-curvature="0" />
      <path
         id="path7604"
         d="m 408,468 c 0,41.97364 -32.68321,76 -73,76 -40.31679,0 -73,-34.02636 -73,-76 0,-41.97364 32.68321,-76 73,-76 40.31679,0 73,34.02636 73,76 z"
         style="fill:url(#linearGradient4017);fill-opacity:1;fill-rule:nonzero;stroke:none"
         transform="matrix(0.78082192,0,0,0.78082192,-109.57534,316.93752)"
         inkscape:connector-curvature="0" />
      <path
         id="path7606"
         d="m 408,468 c 0,41.97364 -32.68321,76 -73,76 -40.31679,0 -73,-34.02636 -73,-76 0,-41.97364 32.68321,-76 73,-76 40.31679,0 73,34.02636 73,76 z"
         style="fill:url(#linearGradient4019);fill-opacity:1;fill-rule:nonzero;stroke:none"
         transform="matrix(0.78082192,0,0,0.78082192,-41.57534,322.93752)"
         inkscape:connector-curvature="0" />
      <path
         id="path7608"
         d="m 408,468 c 0,41.97364 -32.68321,76 -73,76 -40.31679,0 -73,-34.02636 -73,-76 0,-41.97364 32.68321,-76 73,-76 40.31679,0 73,34.02636 73,76 z"
         style="fill:url(#linearGradient4021);fill-opacity:1;fill-rule:nonzero;stroke:none"
         transform="matrix(0.78082192,0,0,0.78082192,22.424657,338.93752)"
         inkscape:connector-curvature="0" />
      <path
         id="path7610"
         d="m 408,468 c 0,41.97364 -32.68321,76 -73,76 -40.31679,0 -73,-34.02636 -73,-76 0,-41.97364 32.68321,-76 73,-76 40.31679,0 73,34.02636 73,76 z"
         style="fill:url(#linearGradient4023);fill-opacity:1;fill-rule:nonzero;stroke:none"
         transform="matrix(0.78082192,0,0,0.78082192,94.424657,358.93752)"
         inkscape:connector-curvature="0" />
      <path
         id="path7612"
         d="m 408,468 c 0,41.97364 -32.68321,76 -73,76 -40.31679,0 -73,-34.02636 -73,-76 0,-41.97364 32.68321,-76 73,-76 40.31679,0 73,34.02636 73,76 z"
         style="fill:url(#linearGradient4025);fill-opacity:1;fill-rule:nonzero;stroke:none"
         transform="matrix(0.78082192,0,0,0.78082192,170.42466,364.93752)"
         inkscape:connector-curvature="0" />
      <path
         id="path7614"
         d="m 408,468 c 0,41.97364 -32.68321,76 -73,76 -40.31679,0 -73,-34.02636 -73,-76 0,-41.97364 32.68321,-76 73,-76 40.31679,0 73,34.02636 73,76 z"
         style="fill:url(#linearGradient4027);fill-opacity:1;fill-rule:nonzero;stroke:none"
         transform="matrix(0.78082192,0,0,0.78082192,232.42466,352.93752)"
         inkscape:connector-curvature="0" />
      <path
         id="path7616"
         d="m 408,468 c 0,41.97364 -32.68321,76 -73,76 -40.31679,0 -73,-34.02636 -73,-76 0,-41.97364 32.68321,-76 73,-76 40.31679,0 73,34.02636 73,76 z"
         style="fill:url(#linearGradient4029);fill-opacity:1;fill-rule:nonzero;stroke:none"
         transform="matrix(0.78082192,0,0,0.78082192,294.42466,360.93752)"
         inkscape:connector-curvature="0" />
      <path
         id="path7618"
         d="m 408,468 c 0,41.97364 -32.68321,76 -73,76 -40.31679,0 -73,-34.02636 -73,-76 0,-41.97364 32.68321,-76 73,-76 40.31679,0 73,34.02636 73,76 z"
         style="fill:url(#linearGradient4031);fill-opacity:1;fill-rule:nonzero;stroke:none"
         transform="matrix(0.78082192,0,0,0.78082192,352.42466,376.93752)"
         inkscape:connector-curvature="0" />
      <path
         id="path7620"
         d="m 408,468 c 0,41.97364 -32.68321,76 -73,76 -40.31679,0 -73,-34.02636 -73,-76 0,-41.97364 32.68321,-76 73,-76 40.31679,0 73,34.02636 73,76 z"
         style="fill:url(#linearGradient4033);fill-opacity:1;fill-rule:nonzero;stroke:none"
         transform="matrix(0.78082192,0,0,0.78082192,412.42466,370.93752)"
         inkscape:connector-curvature="0" />
      <path
         id="path7622"
         d="m 408,468 c 0,41.97364 -32.68321,76 -73,76 -40.31679,0 -73,-34.02636 -73,-76 0,-41.97364 32.68321,-76 73,-76 40.31679,0 73,34.02636 73,76 z"
         style="fill:url(#linearGradient4035);fill-opacity:1;fill-rule:nonzero;stroke:none"
         transform="matrix(0.78082192,0,0,0.78082192,478.42466,374.93752)"
         inkscape:connector-curvature="0" />
      <path
         id="path7624"
         d="m 408,468 c 0,41.97364 -32.68321,76 -73,76 -40.31679,0 -73,-34.02636 -73,-76 0,-41.97364 32.68321,-76 73,-76 40.31679,0 73,34.02636 73,76 z"
         style="fill:url(#linearGradient4037);fill-opacity:1;fill-rule:nonzero;stroke:none"
         transform="matrix(0.78082192,0,0,0.78082192,540.42466,364.93752)"
         inkscape:connector-curvature="0" />
      <path
         id="path7626"
         d="m 408,468 c 0,41.97364 -32.68321,76 -73,76 -40.31679,0 -73,-34.02636 -73,-76 0,-41.97364 32.68321,-76 73,-76 40.31679,0 73,34.02636 73,76 z"
         style="fill:url(#linearGradient4039);fill-opacity:1;fill-rule:nonzero;stroke:none"
         transform="matrix(0.78082192,0,0,0.78082192,594.42466,346.93752)"
         inkscape:connector-curvature="0" />
      <path
         id="path7628"
         d="m 408,468 c 0,41.97364 -32.68321,76 -73,76 -40.31679,0 -73,-34.02636 -73,-76 0,-41.97364 32.68321,-76 73,-76 40.31679,0 73,34.02636 73,76 z"
         style="fill:url(#linearGradient4041);fill-opacity:1;fill-rule:nonzero;stroke:none"
         transform="matrix(0.78082192,0,0,0.78082192,656.42466,358.93752)"
         inkscape:connector-curvature="0" />
      <path
         id="path7630"
         d="m 408,468 c 0,41.97364 -32.68321,76 -73,76 -40.31679,0 -73,-34.02636 -73,-76 0,-41.97364 32.68321,-76 73,-76 40.31679,0 73,34.02636 73,76 z"
         style="fill:url(#linearGradient4043);fill-opacity:1;fill-rule:nonzero;stroke:none"
         transform="matrix(0.78082192,0,0,0.78082192,732.42466,352.93752)"
         inkscape:connector-curvature="0" />
      <path
         id="path7632"
         d="m 408,468 c 0,41.97364 -32.68321,76 -73,76 -40.31679,0 -73,-34.02636 -73,-76 0,-41.97364 32.68321,-76 73,-76 40.31679,0 73,34.02636 73,76 z"
         style="fill:url(#linearGradient4045);fill-opacity:1;fill-rule:nonzero;stroke:none"
         transform="matrix(0.78082192,0,0,0.78082192,780.42466,378.93752)"
         inkscape:connector-curvature="0" />
      <path
         id="path7634"
         d="m 408,468 c 0,41.97364 -32.68321,76 -73,76 -40.31679,0 -73,-34.02636 -73,-76 0,-41.97364 32.68321,-76 73,-76 40.31679,0 73,34.02636 73,76 z"
         style="fill:url(#linearGradient4047);fill-opacity:1;fill-rule:nonzero;stroke:none"
         transform="matrix(0.78082192,0,0,0.78082192,848.42466,398.93752)"
         inkscape:connector-curvature="0" />
      <path
         id="path7636"
         d="m 408,468 c 0,41.97364 -32.68321,76 -73,76 -40.31679,0 -73,-34.02636 -73,-76 0,-41.97364 32.68321,-76 73,-76 40.31679,0 73,34.02636 73,76 z"
         style="fill:url(#linearGradient4049);fill-opacity:1;fill-rule:nonzero;stroke:none"
         transform="matrix(0.78082192,0,0,0.78082192,908.42466,418.93752)"
         inkscape:connector-curvature="0" />
      <path
         id="path7638"
         d="m 408,468 c 0,41.97364 -32.68321,76 -73,76 -40.31679,0 -73,-34.02636 -73,-76 0,-41.97364 32.68321,-76 73,-76 40.31679,0 73,34.02636 73,76 z"
         style="fill:url(#linearGradient4051);fill-opacity:1;fill-rule:nonzero;stroke:none"
         transform="matrix(0.78082192,0,0,0.78082192,982.42466,438.93752)"
         inkscape:connector-curvature="0" />
      <path
         id="path7640"
         d="m 408,468 c 0,41.97364 -32.68321,76 -73,76 -40.31679,0 -73,-34.02636 -73,-76 0,-41.97364 32.68321,-76 73,-76 40.31679,0 73,34.02636 73,76 z"
         style="fill:url(#linearGradient4053);fill-opacity:1;fill-rule:nonzero;stroke:none"
         transform="matrix(0.78082192,0,0,0.78082192,1024.4247,422.93752)"
         inkscape:connector-curvature="0" />
      <path
         id="path7642"
         d="m 408,468 c 0,41.97364 -32.68321,76 -73,76 -40.31679,0 -73,-34.02636 -73,-76 0,-41.97364 32.68321,-76 73,-76 40.31679,0 73,34.02636 73,76 z"
         style="fill:url(#linearGradient4055);fill-opacity:1;fill-rule:nonzero;stroke:none"
         transform="matrix(0.78082192,0,0,0.78082192,1072.4247,414.93752)"
         inkscape:connector-curvature="0" />
      <path
         id="path7644"
         d="m -26,756.36218 1400,0 0,322.00002 -1400,0 z"
         style="fill:url(#linearGradient4057);fill-opacity:1;fill-rule:nonzero;stroke:none"
         inkscape:connector-curvature="0" />
      <path
         id="path7646"
         d="m 60,695.36218 414,0 0,322.00002 -414,0 z"
         style="fill:url(#linearGradient4059);fill-opacity:1;fill-rule:nonzero;stroke:none"
         inkscape:connector-curvature="0" />
    </g>
  </g>
</svg>
